{
    "additional": [
        [
            "debug",
            "STANDARD",
            "Options : DEBUG, STANDARD, WARNING, ERROR"
        ],
        [
            "usercomment",
            "",
            "Info line which will be written in the output files"
        ]
    ],
    "boundary": [
        [
            "massflow",
            0.0,
            "Only for burnerstabilized flames"
        ],
        [
            "inletvelocity",
            1.0,
            "Only for burnerstabilized flames"
        ],
        [
            "equivalenceratio",
            [
                1.0,
                0.0
            ],
            "left and right equivalence ratio"
        ],
        [
            "mixturefraction",
            [
                1.0,
                0.0
            ],
            "left and right mixture fraction"
        ],
        [
            "inlettemperature",
            [
                298.15,
                298.15
            ],
            "fuel and oxidizer temperature"
        ],
        [
            "inletpressure",
            101325.0,
            "pressure"
        ],
        [
            "mixturecalculation",
            "MIXTUREFRACTION",
            "Options: EQUIVALENCERATIO, MIXTUREFRACTION, MOLE, MASS, CONC"
        ]
    ],
    "efield": [
        [
            "model",
            "NONE",
            ""
        ],
        [
            "boundary",
            [
                0.0,
                0.0
            ],
            ""
        ],
        [
            "boundary_location",
            [
                -0.1,
                2.0
            ],
            ""
        ],
        [
            "correction",
            "Em",
            ""
        ]
    ],
    "flameacoustics": [
        [
            "oscillation",
            "NONE",
            "Options: NONE, BLOCK, FTHRE"
        ],
        [
            "frequency",
            100.0,
            "Typical value: 1.953125  Hz"
        ],
        [
            "amplitude",
            1.0,
            "Typical value: 1.7e-4  cm/s"
        ],
        [
            "timeinterval",
            [
                0.0,
                0.0
            ],
            "Typical values: 2.5e-4 ... 0.51225"
        ]
    ],
    "gasmixture": [
        [
            "mixturecomposition",
            {
                "N2": [
                    1.0,
                    1.0
                ]
            },
            "Unit : Defined in BOUNDARY_MIXTURECALCULATION"
        ],
        [
            "fuelcomposition",
            {
                "CH4": 1.0
            },
            "Unit : MOLE fractions, only together with EQUIVALENCERATIO or MIXTUREFRACTION"
        ],
        [
            "oxidizercomposition",
            {
                "N2": 0.79,
                "O2": 0.21
            },
            "Unit : MOLE fractions, only together with EQUIVALENCERATIO or MIXTUREFRACTION"
        ],
        [
            "bathgas",
            "N2",
            "Info : Abundant species, often N2"
        ],
        [
            "fuconv",
            [
                0.0,
                0.0,
                0.0
            ],
            "Info : Not supported"
        ]
    ],
    "grid": [
        [
            "numberofpoints",
            200,
            "Typical value: 100"
        ],
        [
            "weight",
            {
                "Density": 1.0,
                "HeatRel": 1.0,
                "Temp": 1.0
            },
            "Default = 1, lower = less important, higher = more important during regridding"
        ],
        [
            "settozero",
            "ON",
            "Options: ON, OFF"
        ],
        [
            "regrid",
            "ON",
            "Options: ON, OFF"
        ],
        [
            "uniformitymesh",
            0.15,
            "Typical value: 0.15"
        ],
        [
            "meshratio",
            2.0,
            "Typical value: 2.0"
        ],
        [
            "leftboundary",
            -1.5,
            "Typical value: -0.5"
        ],
        [
            "rightboundary",
            4.5,
            "Typical value : 2.0"
        ],
        [
            "fixedpoint",
            [
                "Temp",
                -100
            ],
            "Variable name and value"
        ],
        [
            "adaptationinterval",
            [
                2,
                0
            ],
            "Typical value : 1  0"
        ],
        [
            "interpolation",
            "SPLINE",
            "Options : LINEAR, SPLINE"
        ]
    ],
    "heat": [
        [
            "model",
            "NONE",
            "Options : NONE, FOURIER"
        ],
        [
            "boundary_location",
            [
                0.5,
                2.0
            ],
            "Unit : cm"
        ],
        [
            "boundary_temp",
            350,
            "Unit : K"
        ],
        [
            "alpha",
            0.05,
            "Unit : W/(cm^3 K)"
        ]
    ],
    "lewis": [
        [
            "transportfile",
            "lewis.dat",
            "Typical value  : lewis.dat"
        ],
        [
            "diffusioncorrection",
            "N2",
            "Options: Speciesname (N2)"
        ],
        [
            "lambdacp",
            [
                0.000258,
                0.69
            ],
            "Typical values : 2.58e-4 0.690"
        ],
        [
            "etacp",
            [
                0.000167,
                0.51
            ],
            "Typical values : 1.67e-4 0.51"
        ]
    ],
    "mixtureaveraged": [
        [
            "diffusioncorrection",
            "N2",
            "Options : ALL, or speciesname like N2"
        ]
    ],
    "model": [
        [
            "flametype",
            "COUNTERFLOW",
            "Options: FREE, COUNTERFLOW, COUNTERFLOWCYL, BURNERSTABILIZED, ORIGIN, PLATEHEATING"
        ],
        [
            "simulationtype",
            "STATIONARY",
            "Options: TIMEDEPENDENT, QUASITIMEDEPENDENT, STATIONARY"
        ],
        [
            "transport",
            "MIXTUREAVERAGED",
            "Options: LEWIS, MIXTUREAVERAGED, COMPLEX"
        ],
        [
            "thermaldiffusion",
            "OFF",
            "Options: ON/OFF"
        ],
        [
            "chemistry",
            "DETAILED",
            "Options: DETAILED, FGM"
        ],
        [
            "radiation",
            "NONE",
            "Options: NONE, PLANCK"
        ]
    ],
    "postprocessing": [
        [
            "outputfiles",
            {
                "CONC": [
                    "ciend.dat",
                    "OFF"
                ],
                "EQUIL": [
                    "yiequil.dat",
                    "OFF"
                ],
                "LAMBDACP": [
                    "lambdacp.dat",
                    "OFF"
                ],
                "LEWIS": [
                    "lewis.dat",
                    "OFF"
                ],
                "MASS": [
                    "yiend.dat",
                    "ON"
                ],
                "MOLE": [
                    "xiend.dat",
                    "OFF"
                ],
                "REACTIONRATES": [
                    "rates.dat",
                    "OFF"
                ],
                "RESIDUAL": [
                    "residu.dat",
                    "OFF"
                ],
                "SOURCE": [
                    "siend.dat",
                    "ON"
                ]
            },
            "Supply a filename to the default ouput files"
        ],
        [
            "useroutput",
            {
                "FLUENT": [
                    "flamelet.dat",
                    "OFF"
                ]
            },
            "Options: Defined by user in postprocessing.f"
        ],
        [
            "sensitivity",
            "NONE",
            "Options: NONE, REACTIONS, ALL"
        ]
    ],
    "preprocessing": [
        [
            "startsolutionfile",
            "yistart.dat",
            "Typical value: yistart.dat"
        ],
        [
            "reactionmechanismfile",
            "gri30.chm",
            "Typical value: *.chm"
        ]
    ],
    "radiation": [
        [
            "factor",
            1.0,
            "Info: Artificial scaling factor for Planck Mean Absorbtion Coefficient (calculated internally for H2O and CO2)"
        ]
    ],
    "solid": [
        [
            "volumetricporosity",
            0.8,
            "Unit : cm^3/cm^3"
        ],
        [
            "arealporosity",
            0.8,
            "Unit : cm^2/cm^2"
        ],
        [
            "tortuosity",
            0.96,
            "Note : Of the gas!"
        ],
        [
            "lceramic",
            1.0,
            "Unit : cm"
        ],
        [
            "lcoating",
            0.0,
            "Unit : cm"
        ],
        [
            "specificsurface",
            27.0,
            "Unit : cm^2/cm^3"
        ],
        [
            "alpha",
            [
                0.1,
                0.0
            ],
            "Unit : J/(sKcm^2)   alpha=A0 + A1*T"
        ],
        [
            "conductivity",
            [
                0.0216,
                0.0
            ],
            "Unit : J/(scmK)     lambda=L0 + L1*T"
        ],
        [
            "heatcapicity",
            [
                1.3,
                0.0
            ],
            "Unit : J/(gK)       cp=C0 + C1*T"
        ],
        [
            "density",
            3.0,
            "Unit : g/cm^3"
        ],
        [
            "tsurroundings",
            298.0,
            "Unit : K"
        ],
        [
            "extinction",
            15.0,
            "Unit : 1/cm"
        ],
        [
            "albedo",
            0.0,
            "Unit : -"
        ],
        [
            "emissivity",
            0.85,
            "Unit : -"
        ]
    ],
    "solver": [
        [
            "convergence",
            1e-10,
            "Typical value 1.0e-10"
        ],
        [
            "maximumiterations",
            100000,
            "Typical value 100000"
        ],
        [
            "differentialscheme",
            "EXPONENTIAL",
            "Options: UPWIND, CENTRAL, EXPONENTIAL"
        ],
        [
            "timeintergration",
            "BDF2",
            "Options: BDF1, BDF2"
        ]
    ],
    "strainandcurvature": [
        [
            "flamegeometry",
            "FLAT",
            "Options : FLAT, CYLINDRICAL, SPHERICAL"
        ],
        [
            "curvature",
            0.0,
            "Unit : 1/cm   (1/Radius)"
        ],
        [
            "strain",
            0.0,
            "Unit : 1/s"
        ],
        [
            "strdomleft",
            1.0,
            "Unit : cm"
        ],
        [
            "strdomright",
            1.0,
            "Unit : cm"
        ],
        [
            "file",
            "",
            "File name (stretch.dat)"
        ]
    ],
    "timestepper": [
        [
            "initialtimestep",
            1e-09,
            "Typical value 1.0e-6"
        ],
        [
            "minimumtimestep",
            1e-13,
            "Typical value 1.0e-10"
        ],
        [
            "maximumtimestep",
            0.1,
            "Typical value 1.0e-4"
        ],
        [
            "maxsimulationtime",
            1.0,
            "Typical value 1.0"
        ],
        [
            "outputstep",
            20,
            "Typical value 100"
        ]
    ]
}