No handles with labels found to put in legend.
No handles with labels found to put in legend.
No handles with labels found to put in legend.
No handles with labels found to put in legend.
No handles with labels found to put in legend.
No handles with labels found to put in legend.
No handles with labels found to put in legend.
No handles with labels found to put in legend.
No handles with labels found to put in legend.
No handles with labels found to put in legend.
/gpfs/projects/bsc21/bsc21304/flamegen/flamegen/chem1d/flamelet.py:102: RuntimeWarning: invalid value encountered in true_divide
  speciData.data["Massflow"][correctOrder]
/gpfs/projects/bsc21/bsc21304/flamegen/flamegen/chem1d/flamelet.py:102: RuntimeWarning: invalid value encountered in true_divide
  speciData.data["Massflow"][correctOrder]
/gpfs/projects/bsc21/bsc21304/flamegen/flamegen/chem1d/flamelet.py:102: RuntimeWarning: invalid value encountered in true_divide
  speciData.data["Massflow"][correctOrder]
/gpfs/projects/bsc21/bsc21304/flamegen/flamegen/basic/gradient.py:79: RuntimeWarning: divide by zero encountered in double_scalars
  (arr[k + 1] * h0 / (h1 * (h0 + h1)))
/gpfs/projects/bsc21/bsc21304/flamegen/flamegen/basic/gradient.py:81: RuntimeWarning: divide by zero encountered in double_scalars
  - (arr[k - 1] * h1 / (h0 * (h0 + h1)))
/gpfs/projects/bsc21/bsc21304/flamegen/flamegen/basic/gradient.py:79: RuntimeWarning: invalid value encountered in double_scalars
  (arr[k + 1] * h0 / (h1 * (h0 + h1)))
/gpfs/projects/bsc21/bsc21304/flamegen/flamegen/basic/gradient.py:79: RuntimeWarning: divide by zero encountered in double_scalars
  (arr[k + 1] * h0 / (h1 * (h0 + h1)))
/gpfs/projects/bsc21/bsc21304/flamegen/flamegen/basic/gradient.py:80: RuntimeWarning: divide by zero encountered in double_scalars
  + (arr[k] * (h1 - h0) / (h0 * h1))
/gpfs/projects/bsc21/bsc21304/flamegen/flamegen/basic/gradient.py:79: RuntimeWarning: invalid value encountered in double_scalars
  (arr[k + 1] * h0 / (h1 * (h0 + h1)))
/gpfs/projects/bsc21/bsc21304/flamegen/flamegen/basic/gradient.py:81: RuntimeWarning: divide by zero encountered in double_scalars
  - (arr[k - 1] * h1 / (h0 * (h0 + h1)))
/gpfs/projects/bsc21/bsc21304/flamegen/flamegen/basic/gradient.py:80: RuntimeWarning: divide by zero encountered in double_scalars
  + (arr[k] * (h1 - h0) / (h0 * h1))
/gpfs/projects/bsc21/bsc21304/flamegen/flamegen/basic/gradient.py:80: RuntimeWarning: invalid value encountered in double_scalars
  + (arr[k] * (h1 - h0) / (h0 * h1))
/gpfs/projects/bsc21/bsc21304/flamegen/flamegen/basic/gradient.py:81: RuntimeWarning: invalid value encountered in double_scalars
  - (arr[k - 1] * h1 / (h0 * (h0 + h1)))
/gpfs/projects/bsc21/bsc21304/flamegen/flamegen/basic/gradient.py:80: RuntimeWarning: invalid value encountered in double_scalars
  + (arr[k] * (h1 - h0) / (h0 * h1))
/gpfs/projects/bsc21/bsc21304/flamegen/flamegen/basic/gradient.py:81: RuntimeWarning: invalid value encountered in double_scalars
  - (arr[k - 1] * h1 / (h0 * (h0 + h1)))
/gpfs/projects/bsc21/bsc21304/flamegen/flamegen/basic/gradient.py:79: RuntimeWarning: divide by zero encountered in double_scalars
  (arr[k + 1] * h0 / (h1 * (h0 + h1)))
/gpfs/projects/bsc21/bsc21304/flamegen/flamegen/basic/gradient.py:80: RuntimeWarning: divide by zero encountered in double_scalars
  + (arr[k] * (h1 - h0) / (h0 * h1))
/gpfs/projects/bsc21/bsc21304/flamegen/flamegen/basic/gradient.py:79: RuntimeWarning: invalid value encountered in double_scalars
  (arr[k + 1] * h0 / (h1 * (h0 + h1)))
/gpfs/projects/bsc21/bsc21304/flamegen/flamegen/basic/gradient.py:81: RuntimeWarning: divide by zero encountered in double_scalars
  - (arr[k - 1] * h1 / (h0 * (h0 + h1)))
/gpfs/projects/bsc21/bsc21304/flamegen/flamegen/basic/gradient.py:80: RuntimeWarning: invalid value encountered in double_scalars
  + (arr[k] * (h1 - h0) / (h0 * h1))
/gpfs/projects/bsc21/bsc21304/flamegen/flamegen/basic/gradient.py:81: RuntimeWarning: invalid value encountered in double_scalars
  - (arr[k - 1] * h1 / (h0 * (h0 + h1)))
/gpfs/projects/bsc21/bsc21304/flamegen/flamegen/types/flamelet.py:2126: RuntimeWarning: invalid value encountered in subtract
  locGradMaxL = np.argmin(np.abs(np.abs(Tgrad) - gradMaxL))
No handles with labels found to put in legend.
No handles with labels found to put in legend.
No handles with labels found to put in legend.
No handles with labels found to put in legend.
No handles with labels found to put in legend.
No handles with labels found to put in legend.
No handles with labels found to put in legend.
No handles with labels found to put in legend.
No handles with labels found to put in legend.
No handles with labels found to put in legend.
No handles with labels found to put in legend.
No handles with labels found to put in legend.
No handles with labels found to put in legend.
No handles with labels found to put in legend.
No handles with labels found to put in legend.
No handles with labels found to put in legend.
No handles with labels found to put in legend.
No handles with labels found to put in legend.
No handles with labels found to put in legend.
No handles with labels found to put in legend.
No handles with labels found to put in legend.
No handles with labels found to put in legend.
No handles with labels found to put in legend.
No handles with labels found to put in legend.
No handles with labels found to put in legend.
No handles with labels found to put in legend.
