 
========================================================================
 
 
OOOOOOOOOOOOOOOOOOOOOOOOOOOOOOOOOOOOOOOOOOOOOO
O                                            O
O     @@@@  @  @  @@@@  @   @    @  @@@b     O
O     @     @  @  @     @@ @@   @@  @  @     O
O     @     @@@@  @@@@  @ @ @    @  @  @     O
O     @     @  @  @     @   @    @  @  @     O
O     @@@@  @  @  @@@@  @   @    @  @@@P     O
O                                            O
O     A ONE DIMENSIONAL FLAME CODE           O
O                                            O
O  Version: 3.2.2                            O
O  Release:                                  O
O                                            O
OOOOOOOOOOOOOOOOOOOOOOOOOOOOOOOOOOOOOOOOOOOOOO
 
 
 
* Developed at the Eindhoven University of Technology
 
* http://www.combustion.tue.nl
 
========================================================================
 
Reading CHEM1D input files
    => Start reading chemistry 
    => Finished reading chemistry
    => Thermodynamical Data   [OK]
    => Defaultsfile           [MSG]
                 [WARNING] value outside range at
                          HEAT_BOUNDARY_LOCATI with value  2.00000
                           using        0.54347
                 [WARNING] value outside range at
                          EFIELD_BOUNDARY_LOCA with value  2.00000
                           using        0.54347
    => Settingsfile           [OK]
    => Commandline options    [OK]
    => Reading Lewis numbers  [OK]
    => Start reading .chm file
        [MSG] Transport parameters    [OK]
        [MSG] Conductivity parameters [OK]
        [MSG] Viscosity parameters    [OK]
        [MSG] Difusivity parameters   [OK]
        [MSG] Thermal parameters      [OK]
    => Reading .chm file      [OK]
    => CHEM1D datafile        [OK]
 
------------------------------------------------------------------------
 
Simulation settings:
    => Counterflow flame
    => Timedependent  solution
    => Detailed chemistry model
    => Constant Lewis diffusion model
    => No radiation model
    => No soot model
    => No model for heat exchanger
    => No electricity model
 
------------------------------------------------------------------------
 
Variables:
       Name              BC_Left      BC_Right     Unit
  1) * H2                1.00000E+00  0.00000E+00  Mass frac.
  2) * H                 0.00000E+00  0.00000E+00  Mass frac.
  3) * O                 0.00000E+00  0.00000E+00  Mass frac.
  4) * O2                0.00000E+00  2.32918E-01  Mass frac.
  5) * OH                0.00000E+00  0.00000E+00  Mass frac.
  6) * H2O               0.00000E+00  0.00000E+00  Mass frac.
  7) * HO2               0.00000E+00  0.00000E+00  Mass frac.
  8) * H2O2              0.00000E+00  0.00000E+00  Mass frac.
  9) * C                 0.00000E+00  0.00000E+00  Mass frac.
 10) * CH                0.00000E+00  0.00000E+00  Mass frac.
 11) * CH2               0.00000E+00  0.00000E+00  Mass frac.
 12) * CH2(S)            0.00000E+00  0.00000E+00  Mass frac.
 13) * CH3               0.00000E+00  0.00000E+00  Mass frac.
 14) * CH4               0.00000E+00  0.00000E+00  Mass frac.
 15) * CO                0.00000E+00  0.00000E+00  Mass frac.
 16) * CO2               0.00000E+00  0.00000E+00  Mass frac.
 17) * HCO               0.00000E+00  0.00000E+00  Mass frac.
 18) * CH2O              0.00000E+00  0.00000E+00  Mass frac.
 19) * CH2OH             0.00000E+00  0.00000E+00  Mass frac.
 20) * CH3O              0.00000E+00  0.00000E+00  Mass frac.
 21) * CH3OH             0.00000E+00  0.00000E+00  Mass frac.
 22) * C2H               0.00000E+00  0.00000E+00  Mass frac.
 23) * C2H2              0.00000E+00  0.00000E+00  Mass frac.
 24) * C2H3              0.00000E+00  0.00000E+00  Mass frac.
 25) * C2H4              0.00000E+00  0.00000E+00  Mass frac.
 26) * C2H5              0.00000E+00  0.00000E+00  Mass frac.
 27) * C2H6              0.00000E+00  0.00000E+00  Mass frac.
 28) * HCCO              0.00000E+00  0.00000E+00  Mass frac.
 29) * CH2CO             0.00000E+00  0.00000E+00  Mass frac.
 30) * HCCOH             0.00000E+00  0.00000E+00  Mass frac.
 31) * N                 0.00000E+00  0.00000E+00  Mass frac.
 32) * NH                0.00000E+00  0.00000E+00  Mass frac.
 33) * NH2               0.00000E+00  0.00000E+00  Mass frac.
 34) * NH3               0.00000E+00  0.00000E+00  Mass frac.
 35) * NNH               0.00000E+00  0.00000E+00  Mass frac.
 36) * NO                0.00000E+00  0.00000E+00  Mass frac.
 37) * NO2               0.00000E+00  0.00000E+00  Mass frac.
 38) * N2O               0.00000E+00  0.00000E+00  Mass frac.
 39) * HNO               0.00000E+00  0.00000E+00  Mass frac.
 40) * CN                0.00000E+00  0.00000E+00  Mass frac.
 41) * HCN               0.00000E+00  0.00000E+00  Mass frac.
 42) * H2CN              0.00000E+00  0.00000E+00  Mass frac.
 43) * HCNN              0.00000E+00  0.00000E+00  Mass frac.
 44) * HCNO              0.00000E+00  0.00000E+00  Mass frac.
 45) * HOCN              0.00000E+00  0.00000E+00  Mass frac.
 46) * HNCO              0.00000E+00  0.00000E+00  Mass frac.
 47) * NCO               0.00000E+00  0.00000E+00  Mass frac.
 48) * N2                0.00000E+00  7.67082E-01  Mass frac.
 49) * AR                0.00000E+00  0.00000E+00  Mass frac.
 50) * C3H7              0.00000E+00  0.00000E+00  Mass frac.
 51) * C3H8              0.00000E+00  0.00000E+00  Mass frac.
 52) * CH2CHO            0.00000E+00  0.00000E+00  Mass frac.
 53) * CH3CHO            0.00000E+00  0.00000E+00  Mass frac.
 54) * Temp              3.20000E+02  4.53000E+02  K
 55) * Massflow          7.67732E-05  7.76130E-04  gr/(cm2 s)
 56) * Enthalpy          3.13415E+02  1.57863E+02  J/gr
 57) * MixFrac           1.00000E+00  0.00000E+00  -
 58) * Stretch           3.17953E+03  1.00000E+03  1/s
 59)   Press             1.01325E+05  1.01325E+05  Pa
 60)   Density           7.67732E-05  7.76130E-04  gr/cm3
 61)   MeanMass          2.01594E+00  2.88503E+01  gr/mol
 62)   Surface           0.00000E+00  0.00000E+00  cm2
 63)   Porosity          0.00000E+00  0.00000E+00  -
 64)   Tsolid            0.00000E+00  0.00000E+00  K
 65)   HeatRel           0.00000E+00  0.00000E+00  J/(cm3 s)
 66)   Dissipation       0.00000E+00  0.00000E+00  -
 
------------------------------------------------------------------------
 
       0 --- ---------- ---------- Start solver
       1 --- ---------- ---------- Regridding
       1 --- ---------- ---------- Jacobian 00001
       1 --- ---------- ---------- Timestep 1.000E-09
       1   2 1.8851E-07 1.0000E-09 Time OK
       2   8 6.8777E-06 2.0000E-09 Time OK
       3   8 7.7710E-06 3.0000E-09 Time OK
       4   8 7.1291E-06 4.0000E-09 Time OK
       5   8 6.3864E-06 5.0000E-09 Time OK
       6   8 5.8520E-06 6.0000E-09 Time OK
       7   8 5.4973E-06 7.0000E-09 Time OK
       8   8 5.2467E-06 8.0000E-09 Time OK
       9   8 5.0492E-06 9.0000E-09 Time OK
      10   7 9.9977E-06 1.0000E-08 Time OK
      11   7 9.6077E-06 1.1000E-08 Time OK
      12   7 9.2930E-06 1.2000E-08 Time OK
      13   7 9.0131E-06 1.3000E-08 Time OK
      14   7 8.7535E-06 1.4000E-08 Time OK
      15   7 8.5085E-06 1.5000E-08 Time OK
      16   7 8.2759E-06 1.6000E-08 Time OK
      17   7 8.0542E-06 1.7000E-08 Time OK
      18   7 7.8428E-06 1.8000E-08 Time OK
      19   7 7.6409E-06 1.9000E-08 Time OK
      20   7 7.4479E-06 2.0000E-08 Time OK
      21   7 7.2634E-06 2.1000E-08 Time OK
      22   7 7.0869E-06 2.2000E-08 Time OK
      23 --- ---------- ---------- Jacobian 00002
      23 --- ---------- ---------- Timestep 1.000E-09
      23   1 9.4775E-09 2.3000E-08 Time OK
      24   1 1.8613E-08 2.4000E-08 Time OK
      25   1 2.7390E-08 2.5000E-08 Time OK
      26   1 3.5815E-08 2.6000E-08 Time OK
      27   1 4.3906E-08 2.7000E-08 Time OK
      28   1 5.1680E-08 2.8000E-08 Time OK
      29   1 5.9151E-08 2.9000E-08 Time OK
      30   1 6.6332E-08 3.0000E-08 Time OK
      31   1 7.3234E-08 3.1000E-08 Time OK
      32   1 7.9869E-08 3.2000E-08 Time OK
      33   1 8.6248E-08 3.3000E-08 Time OK
      34   1 9.2379E-08 3.4000E-08 Time OK
      35   1 9.8272E-08 3.5000E-08 Time OK
      36   1 1.0394E-07 3.6000E-08 Time OK
      37   1 1.0938E-07 3.7000E-08 Time OK
      38   1 1.1461E-07 3.8000E-08 Time OK
      39   1 1.1964E-07 3.9000E-08 Time OK
      40   1 1.2447E-07 4.0000E-08 Time OK
      41   1 1.2911E-07 4.1000E-08 Time OK
      42   1 1.3356E-07 4.2000E-08 Time OK
      43   1 1.3784E-07 4.3000E-08 Time OK
      44   1 1.4195E-07 4.4000E-08 Time OK
      45 --- ---------- ---------- Regridding
      45 --- ---------- ---------- Jacobian 00003
      45 --- ---------- ---------- Timestep 2.000E-09
      45   1 1.0733E-06 4.6000E-08 Time OK
      46   1 2.2848E-06 4.8000E-08 Time OK
      47   0 7.8894E-06 5.0000E-08 Time OK
      48   1 3.0433E-07 5.2000E-08 Time OK
      49   0 9.1607E-06 5.4000E-08 Time OK
      50   1 7.7138E-07 5.6000E-08 Time OK
      51   1 4.1503E-07 5.8000E-08 Time OK
      52   0 7.6795E-06 6.0000E-08 Time OK
      53   1 4.5693E-08 6.2000E-08 Time OK
      54   0 8.4730E-06 6.4000E-08 Time OK
      55   1 6.8650E-08 6.6000E-08 Time OK
      56   0 8.5348E-06 6.8000E-08 Time OK
      57   1 6.8720E-08 7.0000E-08 Time OK
      58   0 8.3771E-06 7.2000E-08 Time OK
      59   1 8.7220E-08 7.4000E-08 Time OK
      60   0 8.1804E-06 7.6000E-08 Time OK
      61   1 8.1028E-08 7.8000E-08 Time OK
      62   0 7.9573E-06 8.0000E-08 Time OK
      63   1 1.0068E-07 8.2000E-08 Time OK
      64   0 7.7548E-06 8.4000E-08 Time OK
      65   1 8.9249E-08 8.6000E-08 Time OK
      66   0 7.5541E-06 8.8000E-08 Time OK
      67 --- ---------- ---------- Jacobian 00004
      67 --- ---------- ---------- Timestep 4.000E-09
      67   1 5.5334E-08 9.2000E-08 Time OK
      68   1 6.5001E-08 9.6000E-08 Time OK
      69   1 8.6975E-08 1.0000E-07 Time OK
      70   1 1.0597E-07 1.0400E-07 Time OK
      71   1 1.2383E-07 1.0800E-07 Time OK
      72   1 1.3999E-07 1.1200E-07 Time OK
      73   1 1.5438E-07 1.1600E-07 Time OK
      74   1 1.6705E-07 1.2000E-07 Time OK
      75   1 1.7811E-07 1.2400E-07 Time OK
      76   1 1.8771E-07 1.2800E-07 Time OK
      77   1 1.9597E-07 1.3200E-07 Time OK
      78   1 2.0303E-07 1.3600E-07 Time OK
      79   1 2.0901E-07 1.4000E-07 Time OK
      80   1 2.1402E-07 1.4400E-07 Time OK
      81   1 2.1816E-07 1.4800E-07 Time OK
      82   1 2.2152E-07 1.5200E-07 Time OK
      83   1 2.2418E-07 1.5600E-07 Time OK
      84   1 2.2621E-07 1.6000E-07 Time OK
      85   1 2.2768E-07 1.6400E-07 Time OK
      86   1 2.2866E-07 1.6800E-07 Time OK
      87   1 2.2919E-07 1.7200E-07 Time OK
      88   1 2.2933E-07 1.7600E-07 Time OK
      89 --- ---------- ---------- Regridding
      89 --- ---------- ---------- Jacobian 00005
      89 --- ---------- ---------- Timestep 8.000E-09
      89   1 1.6837E-07 1.8400E-07 Time OK
      90   1 3.4182E-07 1.9200E-07 Time OK
      91   1 1.3773E-07 2.0000E-07 Time OK
      92   1 1.6813E-07 2.0800E-07 Time OK
      93   1 1.9257E-07 2.1600E-07 Time OK
      94   1 2.1216E-07 2.2400E-07 Time OK
      95   1 2.2770E-07 2.3200E-07 Time OK
      96   1 2.3989E-07 2.4000E-07 Time OK
      97   1 2.4929E-07 2.4800E-07 Time OK
      98   1 2.5639E-07 2.5600E-07 Time OK
      99   1 2.6157E-07 2.6400E-07 Time OK
     100   1 2.6516E-07 2.7200E-07 Time OK
     101   1 2.6745E-07 2.8000E-07 Time OK
     102   1 2.6865E-07 2.8800E-07 Time OK
     103   1 2.6897E-07 2.9600E-07 Time OK
     104   1 2.6856E-07 3.0400E-07 Time OK
     105   1 2.6756E-07 3.1200E-07 Time OK
     106   1 2.6609E-07 3.2000E-07 Time OK
     107   1 2.6423E-07 3.2800E-07 Time OK
     108   1 2.6207E-07 3.3600E-07 Time OK
     109   1 2.5967E-07 3.4400E-07 Time OK
     110   1 2.5708E-07 3.5200E-07 Time OK
     111 --- ---------- ---------- Jacobian 00006
     111 --- ---------- ---------- Timestep 1.600E-08
     111   1 5.1202E-08 3.6800E-07 Time OK
     112   1 9.1900E-08 3.8400E-07 Time OK
     113   1 1.2428E-07 4.0000E-07 Time OK
     114   1 1.4995E-07 4.1600E-07 Time OK
     115   1 1.7035E-07 4.3200E-07 Time OK
     116   1 1.8661E-07 4.4800E-07 Time OK
     117   1 1.9955E-07 4.6400E-07 Time OK
     118   1 2.0986E-07 4.8000E-07 Time OK
     119   1 2.1803E-07 4.9600E-07 Time OK
     120   1 2.2448E-07 5.1200E-07 Time OK
     121   1 2.2952E-07 5.2800E-07 Time OK
     122   1 2.3340E-07 5.4400E-07 Time OK
     123   1 2.3633E-07 5.6000E-07 Time OK
     124   1 2.3848E-07 5.7600E-07 Time OK
     125   1 2.3999E-07 5.9200E-07 Time OK
     126   1 2.4096E-07 6.0800E-07 Time OK
     127   1 2.4148E-07 6.2400E-07 Time OK
     128   1 2.4163E-07 6.4000E-07 Time OK
     129   1 2.4147E-07 6.5600E-07 Time OK
     130   1 2.4105E-07 6.7200E-07 Time OK
     131   1 2.4041E-07 6.8800E-07 Time OK
     132   1 2.3959E-07 7.0400E-07 Time OK
     133 --- ---------- ---------- Regridding
     133 --- ---------- ---------- Jacobian 00007
     133 --- ---------- ---------- Timestep 3.200E-08
     133   1 1.0852E-07 7.3600E-07 Time OK
     134   1 2.3436E-07 7.6800E-07 Time OK
     135   1 6.9166E-08 8.0000E-07 Time OK
     136   1 8.3990E-08 8.3200E-07 Time OK
     137   1 9.6021E-08 8.6400E-07 Time OK
     138   1 1.0593E-07 8.9600E-07 Time OK
     139   1 1.1406E-07 9.2800E-07 Time OK
     140   1 1.2073E-07 9.6000E-07 Time OK
     141   1 1.2618E-07 9.9200E-07 Time OK
     142   1 1.3062E-07 1.0240E-06 Time OK
     143   1 1.3421E-07 1.0560E-06 Time OK
     144   1 1.3709E-07 1.0880E-06 Time OK
     145   1 1.3937E-07 1.1200E-06 Time OK
     146   1 1.4116E-07 1.1520E-06 Time OK
     147   1 1.4253E-07 1.1840E-06 Time OK
     148   1 1.4355E-07 1.2160E-06 Time OK
     149   1 1.4429E-07 1.2480E-06 Time OK
     150   1 1.4479E-07 1.2800E-06 Time OK
     151   1 1.4510E-07 1.3120E-06 Time OK
     152   1 1.4526E-07 1.3440E-06 Time OK
     153   1 1.4530E-07 1.3760E-06 Time OK
     154   1 1.4524E-07 1.4080E-06 Time OK
     155 --- ---------- ---------- Jacobian 00008
     155 --- ---------- ---------- Timestep 6.400E-08
     155   1 2.2590E-08 1.4720E-06 Time OK
     156   1 4.1958E-08 1.5360E-06 Time OK
     157   1 5.8874E-08 1.6000E-06 Time OK
     158   1 7.3813E-08 1.6640E-06 Time OK
     159   1 8.7149E-08 1.7280E-06 Time OK
     160   1 9.9173E-08 1.7920E-06 Time OK
     161   1 1.1012E-07 1.8560E-06 Time OK
     162   1 1.2016E-07 1.9200E-06 Time OK
     163   1 1.2946E-07 1.9840E-06 Time OK
     164   1 1.3813E-07 2.0480E-06 Time OK
     165   1 1.4629E-07 2.1120E-06 Time OK
     166   1 1.5402E-07 2.1760E-06 Time OK
     167   1 1.6143E-07 2.2400E-06 Time OK
     168   1 1.6860E-07 2.3040E-06 Time OK
     169   1 1.7561E-07 2.3680E-06 Time OK
     170   1 1.8257E-07 2.4320E-06 Time OK
     171   1 1.8955E-07 2.4960E-06 Time OK
     172   1 1.9665E-07 2.5600E-06 Time OK
     173   1 2.0396E-07 2.6240E-06 Time OK
     174   1 2.1156E-07 2.6880E-06 Time OK
     175   1 2.1955E-07 2.7520E-06 Time OK
     176   1 2.2800E-07 2.8160E-06 Time OK
     177 --- ---------- ---------- Regridding
     177 --- ---------- ---------- Jacobian 00009
     177 --- ---------- ---------- Timestep 1.280E-07
     177   1 7.2144E-08 2.9440E-06 Time OK
     178   1 1.5157E-07 3.0720E-06 Time OK
     179   1 1.7692E-07 3.2000E-06 Time OK
     180   1 2.4011E-07 3.3280E-06 Time OK
     181   1 3.1010E-07 3.4560E-06 Time OK
     182   1 3.8496E-07 3.5840E-06 Time OK
     183   1 4.6537E-07 3.7120E-06 Time OK
     184   1 5.5148E-07 3.8400E-06 Time OK
     185   1 6.4279E-07 3.9680E-06 Time OK
     186   1 7.3851E-07 4.0960E-06 Time OK
     187   1 8.3781E-07 4.2240E-06 Time OK
     188   1 9.3987E-07 4.3520E-06 Time OK
     189   0 9.8256E-06 4.4800E-06 Time OK
     190   1 2.0513E-06 4.6080E-06 Time OK
     191   0 8.4528E-06 4.7360E-06 Time OK
     192   1 2.4161E-06 4.8640E-06 Time OK
     193   1 1.8552E-06 4.9920E-06 Time OK
     194   0 9.3810E-06 5.1200E-06 Time OK
     195   1 3.2189E-06 5.2480E-06 Time OK
     196   0 8.9321E-06 5.3760E-06 Time OK
     197   1 3.4048E-06 5.5040E-06 Time OK
     198   0 9.4072E-06 5.6320E-06 Time OK
     199 --- ---------- ---------- Jacobian 00010
     199 --- ---------- ---------- Timestep 2.560E-07
     199   1 5.2313E-07 5.8880E-06 Time OK
     200   1 8.4097E-07 6.1440E-06 Time OK
     201   1 1.1781E-06 6.4000E-06 Time OK
     202   1 1.4986E-06 6.6560E-06 Time OK
     203   1 1.8049E-06 6.9120E-06 Time OK
     204   1 2.0903E-06 7.1680E-06 Time OK
     205   1 2.3501E-06 7.4240E-06 Time OK
     206   1 2.5823E-06 7.6800E-06 Time OK
     207   1 2.7868E-06 7.9360E-06 Time OK
     208   0 9.6396E-06 8.1920E-06 Time OK
     209   1 5.6823E-06 8.4480E-06 Time OK
     210   1 3.7925E-06 8.7040E-06 Time OK
     211   0 8.9495E-06 8.9600E-06 Time OK
     212   1 6.7198E-06 9.2160E-06 Time OK
     213   1 4.1490E-06 9.4720E-06 Time OK
     214   0 7.8057E-06 9.7280E-06 Time OK
     215   1 7.0558E-06 9.9840E-06 Time OK
     216   1 4.2471E-06 1.0240E-05 Time OK
     217   0 6.7456E-06 1.0496E-05 Time OK
     218   1 7.1633E-06 1.0752E-05 Time OK
     219   1 4.2379E-06 1.1008E-05 Time OK
     220   0 5.8707E-06 1.1264E-05 Time OK
     221 --- ---------- ---------- Regridding
     221 --- ---------- ---------- Jacobian 00011
     221 --- ---------- ---------- Timestep 5.120E-07
     221   1 9.5316E-07 1.1776E-05 Time OK
     222   1 1.5854E-06 1.2288E-05 Time OK
     223   1 2.1448E-06 1.2800E-05 Time OK
     224   1 2.5353E-06 1.3312E-05 Time OK
     225   1 2.8816E-06 1.3824E-05 Time OK
     226   1 3.1833E-06 1.4336E-05 Time OK
     227   0 9.9359E-06 1.4848E-05 Time OK
     228   1 6.6554E-06 1.5360E-05 Time OK
     229   1 4.6747E-06 1.5872E-05 Time OK
     230   0 8.1733E-06 1.6384E-05 Time OK
     231   1 7.9270E-06 1.6896E-05 Time OK
     232   1 5.1438E-06 1.7408E-05 Time OK
     233   0 6.5088E-06 1.7920E-05 Time OK
     234   1 8.2926E-06 1.8432E-05 Time OK
     235   1 5.2992E-06 1.8944E-05 Time OK
     236   0 5.0621E-06 1.9456E-05 Time OK
     237   1 8.4242E-06 1.9968E-05 Time OK
     238   1 5.3159E-06 2.0480E-05 Time OK
     239   0 4.0042E-06 2.0992E-05 Time OK
     240   1 8.3747E-06 2.1504E-05 Time OK
     241   1 5.2471E-06 2.2016E-05 Time OK
     242   0 3.2601E-06 2.2528E-05 Time OK
     243 --- ---------- ---------- Jacobian 00012
     243 --- ---------- ---------- Timestep 1.024E-06
     243   1 1.0857E-06 2.3552E-05 Time OK
     244   1 1.6891E-06 2.4576E-05 Time OK
     245   1 2.1935E-06 2.5600E-05 Time OK
     246   0 9.1013E-06 2.6624E-05 Time OK
     247   1 5.4070E-06 2.7648E-05 Time OK
     248   1 4.0774E-06 2.8672E-05 Time OK
     249   0 6.1356E-06 2.9696E-05 Time OK
     250   1 6.8360E-06 3.0720E-05 Time OK
     251   1 4.6883E-06 3.1744E-05 Time OK
     252   0 4.5923E-06 3.2768E-05 Time OK
     253   1 7.1089E-06 3.3792E-05 Time OK
     254   1 4.7558E-06 3.4816E-05 Time OK
     255   0 3.8677E-06 3.5840E-05 Time OK
     256   1 6.9182E-06 3.6864E-05 Time OK
     257   1 4.5790E-06 3.7888E-05 Time OK
     258   0 3.7540E-06 3.8912E-05 Time OK
     259   1 6.5118E-06 3.9936E-05 Time OK
     260   1 4.3643E-06 4.0960E-05 Time OK
     261   0 4.2802E-06 4.1984E-05 Time OK
     262   1 6.2399E-06 4.3008E-05 Time OK
     263   1 5.0281E-06 4.4032E-05 Time OK
     264   0 7.9579E-06 4.5056E-05 Time OK
     265 --- ---------- ---------- Regridding
     265 --- ---------- ---------- Jacobian 00013
     265 --- ---------- ---------- Timestep 2.048E-06
     265   1 1.0481E-06 4.7104E-05 Time OK
     266   1 1.5255E-06 4.9152E-05 Time OK
     267   1 1.2988E-06 5.1200E-05 Time OK
     268   1 1.4487E-06 5.3248E-05 Time OK
     269   0 9.6913E-06 5.5296E-05 Time OK
     270   1 3.2991E-06 5.7344E-05 Time OK
     271   0 6.4498E-06 5.9392E-05 Time OK
     272   1 4.7714E-06 6.1440E-05 Time OK
     273   1 6.6437E-06 6.3488E-05 Time OK
     274   3 9.5360E-06 6.5536E-05 Time OK
     275   3 1.0552E-06 6.7584E-05 Time OK
     276   1 3.7109E-06 6.9632E-05 Time OK
     277   1 7.1974E-06 7.1680E-05 Time OK
     278   1 9.0118E-06 7.3728E-05 Time OK
     279   1 9.1309E-06 7.5776E-05 Time OK
     280   1 8.3694E-06 7.7824E-05 Time OK
     281   1 7.5243E-06 7.9872E-05 Time OK
     282   1 6.9366E-06 8.1920E-05 Time OK
     283   1 6.6523E-06 8.3968E-05 Time OK
     284   1 6.5379E-06 8.6016E-05 Time OK
     285   1 6.6788E-06 8.8064E-05 Time OK
     286   1 7.3420E-06 9.0112E-05 Time OK
     287 --- ---------- ---------- Jacobian 00014
     287 --- ---------- ---------- Timestep 4.096E-06
     287   1 1.2319E-06 9.4208E-05 Time OK
     288   1 1.5247E-06 9.8304E-05 Time OK
     289   1 1.7339E-06 1.0240E-04 Time OK
     290   1 1.9384E-06 1.0650E-04 Time OK
     291   1 2.7383E-06 1.1059E-04 Time OK
     292   1 3.5519E-06 1.1469E-04 Time OK
     293   1 7.1101E-06 1.1878E-04 Time OK
     294   3 1.2066E-06 1.2288E-04 Time OK
     295   1 4.4551E-06 1.2698E-04 Time OK
     296   1 7.2468E-06 1.3107E-04 Time OK
     297   1 8.1498E-06 1.3517E-04 Time OK
     298   1 7.6375E-06 1.3926E-04 Time OK
     299   1 7.5616E-06 1.4336E-04 Time OK
     300   1 8.6041E-06 1.4746E-04 Time OK
     301  10 1.7704E-04 1.5155E-04 Time Fail
     302 --- ---------- ---------- Regridding
     302 --- ---------- ---------- Jacobian 00015
     302 --- ---------- ---------- Timestep 2.048E-06
     302   1 3.8335E-07 1.4950E-04 Time OK
     303   1 3.9656E-07 1.5155E-04 Time OK
     304   0 2.0565E-06 1.5360E-04 Time OK
     305   0 4.8674E-06 1.5565E-04 Time OK
     306   0 8.9187E-06 1.5770E-04 Time OK
     307   1 5.2733E-07 1.5974E-04 Time OK
     308   0 8.1021E-06 1.6179E-04 Time OK
     309   1 7.1618E-07 1.6384E-04 Time OK
     310   0 8.1985E-06 1.6589E-04 Time OK
     311   1 1.1241E-06 1.6794E-04 Time OK
     312   0 8.8100E-06 1.6998E-04 Time OK
     313   1 2.1724E-06 1.7203E-04 Time OK
     314   1 2.5684E-06 1.7408E-04 Time OK
     315   0 6.5698E-06 1.7613E-04 Time OK
     316   1 3.9286E-06 1.7818E-04 Time OK
     317   1 5.3881E-06 1.8022E-04 Time OK
     318   1 5.6459E-06 1.8227E-04 Time OK
     319   1 6.8848E-06 1.8432E-04 Time OK
     320   1 8.5430E-06 1.8637E-04 Time OK
     321   2 5.9332E-06 1.8842E-04 Time OK
     322   0 5.5999E-06 1.9046E-04 Time OK
     323   0 6.3660E-06 1.9251E-04 Time OK
     324 --- ---------- ---------- Jacobian 00016
     324 --- ---------- ---------- Timestep 4.096E-06
     324   1 3.5498E-07 1.9661E-04 Time OK
     325   0 6.6513E-06 2.0070E-04 Time OK
     326   1 1.7756E-06 2.0480E-04 Time OK
     327   0 9.6771E-06 2.0890E-04 Time OK
     328   1 3.6582E-06 2.1299E-04 Time OK
     329   1 3.9494E-06 2.1709E-04 Time OK
     330   1 2.8249E-06 2.2118E-04 Time OK
     331   0 8.8978E-06 2.2528E-04 Time OK
     332   1 5.5387E-06 2.2938E-04 Time OK
     333   1 7.4222E-06 2.3347E-04 Time OK
     334   1 8.1086E-06 2.3757E-04 Time OK
     335   2 4.6933E-06 2.4166E-04 Time OK
     336   0 3.0546E-06 2.4576E-04 Time OK
     337   0 3.7678E-06 2.4986E-04 Time OK
     338   0 6.9055E-06 2.5395E-04 Time OK
     339   1 4.2686E-06 2.5805E-04 Time OK
     340   1 6.5624E-06 2.6214E-04 Time OK
     341   1 9.2795E-06 2.6624E-04 Time OK
     342   2 8.3215E-06 2.7034E-04 Time OK
     343   0 8.3426E-06 2.7443E-04 Time OK
     344   0 8.4838E-06 2.7853E-04 Time OK
     345   0 9.0128E-06 2.8262E-04 Time OK
     346 --- ---------- ---------- Regridding
     346 --- ---------- ---------- Jacobian 00017
     346 --- ---------- ---------- Timestep 8.192E-06
     346   1 3.0710E-07 2.9082E-04 Time OK
     347   1 5.4267E-07 2.9901E-04 Time OK
     348   0 1.0537E-06 3.0720E-04 Time OK
     349   0 2.1186E-06 3.1539E-04 Time OK
     350   0 3.7522E-06 3.2358E-04 Time OK
     351   0 5.9509E-06 3.3178E-04 Time OK
     352   0 8.7076E-06 3.3997E-04 Time OK
     353   1 2.2042E-06 3.4816E-04 Time OK
     354   1 1.2082E-06 3.5635E-04 Time OK
     355   0 1.7266E-06 3.6454E-04 Time OK
     356   0 3.0793E-06 3.7274E-04 Time OK
     357   0 4.6046E-06 3.8093E-04 Time OK
     358   0 6.2041E-06 3.8912E-04 Time OK
     359   0 7.8631E-06 3.9731E-04 Time OK
     360   0 9.5823E-06 4.0550E-04 Time OK
     361   1 2.7859E-06 4.1370E-04 Time OK
     362   1 2.1354E-06 4.2189E-04 Time OK
     363   0 5.2412E-06 4.3008E-04 Time OK
     364   0 8.7582E-06 4.3827E-04 Time OK
     365   1 2.3517E-06 4.4646E-04 Time OK
     366   1 2.3980E-06 4.5466E-04 Time OK
     367   0 6.3356E-06 4.6285E-04 Time OK
     368 --- ---------- ---------- Jacobian 00018
     368 --- ---------- ---------- Timestep 1.638E-05
     368   1 2.5652E-07 4.7923E-04 Time OK
     369   0 5.5863E-06 4.9562E-04 Time OK
     370   1 5.8934E-07 5.1200E-04 Time OK
     371   0 4.0650E-06 5.2838E-04 Time OK
     372   0 8.6528E-06 5.4477E-04 Time OK
     373   1 1.3954E-06 5.6115E-04 Time OK
     374   0 5.5518E-06 5.7754E-04 Time OK
     375   1 1.6512E-06 5.9392E-04 Time OK
     376   0 2.4651E-06 6.1030E-04 Time OK
     377   0 6.5758E-06 6.2669E-04 Time OK
     378   1 1.8367E-06 6.4307E-04 Time OK
     379   0 5.7077E-06 6.5946E-04 Time OK
     380   1 1.4027E-06 6.7584E-04 Time OK
     381   0 4.3999E-06 6.9222E-04 Time OK
     382   0 9.8671E-06 7.0861E-04 Time OK
     383   1 1.9599E-06 7.2499E-04 Time OK
     384   1 7.4395E-07 7.4138E-04 Time OK
     385   0 1.9702E-06 7.5776E-04 Time OK
     386   0 4.0611E-06 7.7414E-04 Time OK
     387   0 6.4250E-06 7.9053E-04 Time OK
     388   0 9.0387E-06 8.0691E-04 Time OK
     389   1 2.3685E-06 8.2330E-04 Time OK
     390 --- ---------- ---------- Regridding
     390 --- ---------- ---------- Jacobian 00019
     390 --- ---------- ---------- Timestep 3.277E-05
     390   1 1.7615E-07 8.5606E-04 Time OK
     391   1 2.4650E-07 8.8883E-04 Time OK
     392   0 4.0140E-07 9.2160E-04 Time OK
     393   0 8.5745E-07 9.5437E-04 Time OK
     394   0 1.6688E-06 9.8714E-04 Time OK
     395   0 2.8035E-06 1.0199E-03 Time OK
     396   0 4.2520E-06 1.0527E-03 Time OK
     397   0 6.0117E-06 1.0854E-03 Time OK
     398   0 8.0824E-06 1.1182E-03 Time OK
     399   1 2.5308E-06 1.1510E-03 Time OK
     400   1 6.1472E-07 1.1837E-03 Time OK
     401   0 1.9277E-06 1.2165E-03 Time OK
     402   0 4.0506E-06 1.2493E-03 Time OK
     403   0 6.2016E-06 1.2820E-03 Time OK
     404   0 8.3575E-06 1.3148E-03 Time OK
     405   1 8.0433E-07 1.3476E-03 Time OK
     406   0 8.0615E-06 1.3804E-03 Time OK
     407   1 7.4135E-07 1.4131E-03 Time OK
     408   0 8.1299E-06 1.4459E-03 Time OK
     409   1 3.0282E-07 1.4787E-03 Time OK
     410   0 8.3423E-06 1.5114E-03 Time OK
     411   1 2.5416E-07 1.5442E-03 Time OK
     412 --- ---------- ---------- Jacobian 00020
     412 --- ---------- ---------- Timestep 6.554E-05
     412   0 2.7728E-06 1.6097E-03 Time OK
     413   0 4.5191E-06 1.6753E-03 Time OK
     414   0 6.2629E-06 1.7408E-03 Time OK
     415   0 7.9956E-06 1.8063E-03 Time OK
     416   0 9.7179E-06 1.8719E-03 Time OK
     417   1 7.6037E-07 1.9374E-03 Time OK
     418   0 8.0837E-06 2.0029E-03 Time OK
     419   1 6.1911E-07 2.0685E-03 Time OK
     420   0 7.1235E-06 2.1340E-03 Time OK
     421   1 5.0117E-07 2.1996E-03 Time OK
     422   0 6.9860E-06 2.2651E-03 Time OK
     423   1 3.7162E-07 2.3306E-03 Time OK
     424   0 6.7064E-06 2.3962E-03 Time OK
     425   1 1.5201E-07 2.4617E-03 Time OK
     426   0 6.5153E-06 2.5272E-03 Time OK
     427   1 1.3105E-07 2.5928E-03 Time OK
     428   0 6.4066E-06 2.6583E-03 Time OK
     429   1 2.2892E-07 2.7238E-03 Time OK
     430   0 6.3767E-06 2.7894E-03 Time OK
     431   1 1.2102E-07 2.8549E-03 Time OK
     432   0 6.2757E-06 2.9204E-03 Time OK
     433   1 1.0908E-07 2.9860E-03 Time OK
     434 --- ---------- ---------- Regridding
     434 --- ---------- ---------- Jacobian 00021
     434 --- ---------- ---------- Timestep 1.311E-04
     434   1 1.9453E-07 3.1171E-03 Time OK
     435   1 2.1235E-07 3.2481E-03 Time OK
     436   0 2.4603E-07 3.3792E-03 Time OK
     437   0 2.8936E-07 3.5103E-03 Time OK
     438   0 3.3883E-07 3.6413E-03 Time OK
     439   0 3.9207E-07 3.7724E-03 Time OK
     440   0 4.4736E-07 3.9035E-03 Time OK
     441   0 5.0561E-07 4.0346E-03 Time OK
     442   0 5.6991E-07 4.1656E-03 Time OK
     443   0 6.3857E-07 4.2967E-03 Time OK
     444   0 7.1046E-07 4.4278E-03 Time OK
     445   0 7.8486E-07 4.5588E-03 Time OK
     446   0 8.6131E-07 4.6899E-03 Time OK
     447   0 9.3950E-07 4.8210E-03 Time OK
     448   0 1.0192E-06 4.9521E-03 Time OK
     449   0 1.1004E-06 5.0831E-03 Time OK
     450   0 1.1829E-06 5.2142E-03 Time OK
     451   0 1.2666E-06 5.3453E-03 Time OK
     452   0 1.3572E-06 5.4764E-03 Time OK
     453   0 1.4640E-06 5.6074E-03 Time OK
     454   0 1.5979E-06 5.7385E-03 Time OK
     455   0 1.7524E-06 5.8696E-03 Time OK
     456 --- ---------- ---------- Jacobian 00022
     456 --- ---------- ---------- Timestep 2.621E-04
     456   0 1.9294E-06 6.1317E-03 Time OK
     457   0 2.2888E-06 6.3939E-03 Time OK
     458   0 2.7195E-06 6.6560E-03 Time OK
     459   0 3.2919E-06 6.9181E-03 Time OK
     460   0 3.9217E-06 7.1803E-03 Time OK
     461   0 4.5902E-06 7.4424E-03 Time OK
     462   0 5.3716E-06 7.7046E-03 Time OK
     463   0 6.1933E-06 7.9667E-03 Time OK
     464   0 7.0400E-06 8.2289E-03 Time OK
     465   0 7.9041E-06 8.4910E-03 Time OK
     466   0 8.7810E-06 8.7532E-03 Time OK
     467   0 9.6693E-06 9.0153E-03 Time OK
     468   1 2.3483E-06 9.2774E-03 Time OK
     469   0 3.9791E-06 9.5396E-03 Time OK
     470   0 5.5004E-06 9.8017E-03 Time OK
     471   0 7.3082E-06 1.0064E-02 Time OK
     472   2 5.7484E-06 1.0326E-02 Time OK
     473   1 6.0255E-06 1.0588E-02 Time OK
     474   0 8.1268E-06 1.0850E-02 Time OK
     475   1 7.3894E-06 1.1112E-02 Time OK
     476   0 8.2471E-06 1.1375E-02 Time OK
     477   1 6.0590E-06 1.1637E-02 Time OK
     478 --- ---------- ---------- Regridding
     478 --- ---------- ---------- Jacobian 00023
     478 --- ---------- ---------- Timestep 5.243E-04
     478   1 3.7239E-06 1.2161E-02 Time OK
     479   1 3.3623E-06 1.2685E-02 Time OK
     480   0 5.4200E-06 1.3210E-02 Time OK
     481   0 8.2920E-06 1.3734E-02 Time OK
     482   1 6.3253E-06 1.4258E-02 Time OK
     483   1 3.9432E-06 1.4782E-02 Time OK
     484   0 7.6483E-06 1.5307E-02 Time OK
     485   1 4.5785E-06 1.5831E-02 Time OK
     486   0 8.9073E-06 1.6355E-02 Time OK
     487   1 3.7853E-06 1.6880E-02 Time OK
     488   0 9.8208E-06 1.7404E-02 Time OK
     489   1 5.8266E-06 1.7928E-02 Time OK
     490   1 4.2846E-06 1.8452E-02 Time OK
     491   0 6.3639E-06 1.8977E-02 Time OK
     492   1 3.8740E-06 1.9501E-02 Time OK
     493   0 8.7758E-06 2.0025E-02 Time OK
     494   1 2.1661E-06 2.0550E-02 Time OK
     495   1 4.1253E-06 2.1074E-02 Time OK
     496   0 5.9642E-06 2.1598E-02 Time OK
     497   0 8.3861E-06 2.2122E-02 Time OK
     498   1 2.9715E-06 2.2647E-02 Time OK
     499   1 4.6881E-06 2.3171E-02 Time OK
     500 --- ---------- ---------- Jacobian 00024
     500 --- ---------- ---------- Timestep 1.049E-03
     500  10 9.5688E-06 2.4220E-02 Time OK
     501   4 9.9781E-06 2.5268E-02 Time OK
     502   6 9.4699E-06 2.6317E-02 Time OK
     503   4 9.5974E-06 2.7365E-02 Time OK
     504   4 9.8297E-06 2.8414E-02 Time OK
     505   4 9.8363E-06 2.9463E-02 Time OK
     506   4 9.6348E-06 3.0511E-02 Time OK
     507   3 9.8060E-06 3.1560E-02 Time OK
     508   4 9.6317E-06 3.2608E-02 Time OK
     509   3 9.6354E-06 3.3657E-02 Time OK
     510   3 9.7086E-06 3.4705E-02 Time OK
     511   3 9.7438E-06 3.5754E-02 Time OK
     512   3 9.6655E-06 3.6803E-02 Time OK
     513   2 9.8759E-06 3.7851E-02 Time OK
     514   3 9.8276E-06 3.8900E-02 Time OK
     515   2 9.8846E-06 3.9948E-02 Time OK
     516   3 9.6437E-06 4.0997E-02 Time OK
     517   1 9.9044E-06 4.2045E-02 Time OK
     518   3 9.7262E-06 4.3094E-02 Time OK
     519   1 9.9183E-06 4.4143E-02 Time OK
     520   2 9.9952E-06 4.5191E-02 Time OK
     521   2 9.9303E-06 4.6240E-02 Time OK
     522 --- ---------- ---------- Regridding
     522 --- ---------- ---------- Jacobian 00025
     522 --- ---------- ---------- Timestep 2.097E-03
     522  10 9.7979E-06 4.8337E-02 Time OK
     523   2 9.8774E-06 5.0434E-02 Time OK
     524   6 9.8011E-06 5.2531E-02 Time OK
     525   4 9.8046E-06 5.4628E-02 Time OK
     526   3 9.9671E-06 5.6726E-02 Time OK
     527   4 9.8441E-06 5.8823E-02 Time OK
     528   2 9.9360E-06 6.0920E-02 Time OK
     529   3 9.9186E-06 6.3017E-02 Time OK
     530   2 9.9893E-06 6.5114E-02 Time OK
     531   3 9.7889E-06 6.7211E-02 Time OK
     532   1 9.8448E-06 6.9308E-02 Time OK
     533   2 9.8553E-06 7.1406E-02 Time OK
     534   2 9.8066E-06 7.3503E-02 Time OK
     535   1 9.8849E-06 7.5600E-02 Time OK
     536   2 9.8425E-06 7.7697E-02 Time OK
     537   1 9.8779E-06 7.9794E-02 Time OK
     538   1 9.9806E-06 8.1891E-02 Time OK
     539   2 9.8957E-06 8.3988E-02 Time OK
     540   1 9.8497E-06 8.6086E-02 Time OK
     541   1 9.8424E-06 8.8183E-02 Time OK
     542   1 9.8469E-06 9.0280E-02 Time OK
     543   1 9.8604E-06 9.2377E-02 Time OK
     544 --- ---------- ---------- Jacobian 00026
     544 --- ---------- ---------- Timestep 4.194E-03
     544   7 9.9043E-06 9.6571E-02 Time OK
     545   0 9.9873E-06 1.0077E-01 Time OK
     546   4 9.8681E-06 1.0496E-01 Time OK
     547   2 9.8107E-06 1.0915E-01 Time OK
     548   1 9.9500E-06 1.1335E-01 Time OK
     549   2 9.8819E-06 1.1754E-01 Time OK
     550   1 9.9519E-06 1.2174E-01 Time OK
     551   1 9.9208E-06 1.2593E-01 Time OK
     552   1 9.6367E-06 1.3013E-01 Time OK
     553   1 9.1845E-06 1.3432E-01 Time OK
     554   1 8.5620E-06 1.3851E-01 Time OK
     555   1 7.4129E-06 1.4271E-01 Time OK
     556   1 5.8574E-06 1.4690E-01 Time OK
     557   1 4.4398E-06 1.5110E-01 Time OK
     558   1 2.8925E-06 1.5529E-01 Time OK
     559   1 2.2961E-06 1.5949E-01 Time OK
     560   1 2.2889E-06 1.6368E-01 Time OK
     561   0 3.3243E-06 1.6787E-01 Time OK
     562   1 2.1538E-06 1.7207E-01 Time OK
     563   0 2.4429E-06 1.7626E-01 Time OK
     564   0 6.3092E-06 1.8046E-01 Time OK
     565   1 2.4628E-06 1.8465E-01 Time OK
     566 --- ---------- ---------- Regridding
     566 --- ---------- ---------- Jacobian 00027
     566 --- ---------- ---------- Timestep 8.389E-03
     566   1 2.2334E-06 1.9304E-01 Time OK
     567   1 2.2981E-06 2.0143E-01 Time OK
     568   0 9.8476E-06 2.0982E-01 Time OK
     569   1 2.2798E-06 2.1821E-01 Time OK
     570   0 9.9618E-06 2.2659E-01 Time OK
     571   1 3.2515E-06 2.3498E-01 Time OK
     572   0 6.0867E-06 2.4337E-01 Time OK
     573   1 3.9137E-06 2.5176E-01 Time OK
     574   0 4.0486E-06 2.6015E-01 Time OK
     575   0 8.2192E-06 2.6854E-01 Time OK
     576   2 2.9817E-06 2.7693E-01 Time OK
     577   1 5.7085E-06 2.8532E-01 Time OK
     578   1 2.2901E-06 2.9370E-01 Time OK
     579   0 7.0772E-06 3.0209E-01 Time OK
     580   1 3.2157E-06 3.1048E-01 Time OK
     581   0 6.3867E-06 3.1887E-01 Time OK
     582   1 3.5981E-06 3.2726E-01 Time OK
     583   0 6.0606E-06 3.3565E-01 Time OK
     584   1 2.9336E-06 3.4404E-01 Time OK
     585   0 5.8253E-06 3.5242E-01 Time OK
     586   0 9.6621E-06 3.6081E-01 Time OK
     587   1 4.8655E-06 3.6920E-01 Time OK
     588 --- ---------- ---------- Jacobian 00028
     588 --- ---------- ---------- Timestep 1.678E-02
     588   0 4.6471E-06 3.8598E-01 Time OK
     589   0 7.1641E-06 4.0276E-01 Time OK
     590   1 7.3906E-06 4.1953E-01 Time OK
     591   1 4.8016E-06 4.3631E-01 Time OK
     592   0 5.0832E-06 4.5309E-01 Time OK
     593   0 8.8614E-06 4.6986E-01 Time OK
     594   1 5.6820E-06 4.8664E-01 Time OK
     595   1 5.2179E-06 5.0342E-01 Time OK
     596   0 4.6324E-06 5.2020E-01 Time OK
     597   0 4.2456E-06 5.3697E-01 Time OK
     598   0 4.9547E-06 5.5375E-01 Time OK
     599   0 7.3030E-06 5.7053E-01 Time OK
     600   2 7.6014E-06 5.8730E-01 Time OK
     601   0 5.4995E-06 6.0408E-01 Time OK
     602   2 8.5377E-06 6.2086E-01 Time OK
     603   0 7.9379E-06 6.3764E-01 Time OK
     604   2 2.8268E-06 6.5441E-01 Time OK
     605   0 8.3535E-06 6.7119E-01 Time OK
     606   2 2.7564E-06 6.8797E-01 Time OK
     607   0 9.7622E-06 7.0475E-01 Time OK
     608   3 1.6807E-06 7.2152E-01 Time OK
     609   1 8.8886E-06 7.3830E-01 Time OK
     610 --- ---------- ---------- Regridding
     610 --- ---------- ---------- Jacobian 00029
     610 --- ---------- ---------- Timestep 3.355E-02
     610   2 6.9250E-06 7.7185E-01 Time OK
     611   1 9.1685E-06 8.0541E-01 Time OK
     612   1 9.7248E-06 8.3896E-01 Time OK
     613   2 9.8369E-06 8.7252E-01 Time OK
     614   2 9.6954E-06 9.0607E-01 Time OK
     615   1 9.9198E-06 9.3963E-01 Time OK
     616   2 9.9986E-06 9.7318E-01 Time OK
     617 --- ---------- ---------- Jacobian 00030
     617 --- ---------- ---------- Timestep 2.682E-02
     617   0 8.8843E-06 1.0000E+00 Time OK
 
------------------------------------------------------------------------
 
Simulation stopped:
  => Maximum simulation time reached!
 
------------------------------------------------------------------------
 
Postprocessing output:
  => Position reaction layer      :  9.8027E-02 cm
  => Temperature reaction layer   :  1.9180E+03 K
  => Mass burning rate            :  2.4767E-02 gr/(cm2s)
  => Burning velocity (unburnt)   :  3.2260E+02 cm/s
  => Propagation velocity         : -7.5619E-03 cm/s
  => Gas velocity                 : -1.6850E+02 cm/s
  => Maximum temperature          :  1.9417E+03 K
  => Minimum temperature          :  3.2000E+02 K
  => Flame thickness (max grad T) :  4.7001E-02 cm
  => Stoichiometric mixture frac. :  2.8511E-02 -
  => Position stoich mixture      :  9.8246E-02 cm
  => Temperature at stoich mixture:  1.9164E+03 K
  => Scalar dissipation at stoich :  1.1790E+01 1/s
 
========================================================================
 
Copy and modify to steady state: /gpfs/scratch/bsc21/bsc21304/fgnonpremexercise1/exercise/flamelets_nh1.0/auxiliary/initi_1000.0/yiend.dat > /gpfs/scratch/bsc21/bsc21304/fgnonpremexercise1/exercise/flamelets_nh1.0/auxiliary/initi_1000.0/../../stable/yiend_1000.0.dat
Done copying
