%!PS-Adobe-3.0 EPSF-3.0
%%Title: stableFlameletStopCriteria.eps
%%Creator: Matplotlib v3.4.3, https://matplotlib.org/
%%CreationDate: Sat Nov 27 19:00:28 2021
%%Orientation: portrait
%%BoundingBox: -162 252 774 540
%%HiResBoundingBox: -162.000000 252.000000 774.000000 540.000000
%%EndComments
%%BeginProlog
/mpldict 12 dict def
mpldict begin
/_d { bind def } bind def
/m { moveto } _d
/l { lineto } _d
/r { rlineto } _d
/c { curveto } _d
/cl { closepath } _d
/ce { closepath eofill } _d
/box {
      m
      1 index 0 r
      0 exch r
      neg 0 r
      cl
    } _d
/clipbox {
      box
      clip
      newpath
    } _d
/sc { setcachedevice } _d
%!PS-Adobe-3.0 Resource-Font
%%Creator: Converted from TrueType to Type 3 by Matplotlib.
10 dict begin
/FontName /DejaVuSans def
/PaintType 0 def
/FontMatrix [0.00048828125 0 0 0.00048828125 0 0] def
/FontBBox [-2090 -948 3673 2524] def
/FontType 3 def
/Encoding [/e /parenleft /parenright /plus /hyphen /period /slash /zero /one /two /minus /four /five /six /seven /eight /bracketleft /bracketright] def
/CharStrings 19 dict dup begin
/.notdef 0 def
/e{1260 0 113 -29 1151 1147 sc
1151 606 m
1151 516 l
305 516 l
313 389 351 293 419 226 c
488 160 583 127 705 127 c
776 127 844 136 910 153 c
977 170 1043 196 1108 231 c
1108 57 l
1042 29 974 8 905 -7 c
836 -22 765 -29 694 -29 c
515 -29 374 23 269 127 c
165 231 113 372 113 549 c
113 732 162 878 261 985 c
360 1093 494 1147 662 1147 c
813 1147 932 1098 1019 1001 c
1107 904 1151 773 1151 606 c

967 660 m
966 761 937 841 882 901 c
827 961 755 991 664 991 c
561 991 479 962 417 904 c
356 846 320 764 311 659 c
967 660 l

ce} _d
/parenleft{799 0 176 -270 635 1554 sc
635 1554 m
546 1401 479 1249 436 1099 c
393 949 371 797 371 643 c
371 489 393 336 436 185 c
480 34 546 -117 635 -270 c
475 -270 l
375 -113 300 41 250 192 c
201 343 176 494 176 643 c
176 792 201 941 250 1092 c
299 1243 374 1397 475 1554 c
635 1554 l

ce} _d
/parenright{799 0 164 -270 623 1554 sc
164 1554 m
324 1554 l
424 1397 499 1243 548 1092 c
598 941 623 792 623 643 c
623 494 598 343 548 192 c
499 41 424 -113 324 -270 c
164 -270 l
253 -117 319 34 362 185 c
406 336 428 489 428 643 c
428 797 406 949 362 1099 c
319 1249 253 1401 164 1554 c

ce} _d
/plus{1716 0 217 0 1499 1284 sc
942 1284 m
942 727 l
1499 727 l
1499 557 l
942 557 l
942 0 l
774 0 l
774 557 l
217 557 l
217 727 l
774 727 l
774 1284 l
942 1284 l

ce} _d
/hyphen{739 0 100 479 639 643 sc
100 643 m
639 643 l
639 479 l
100 479 l
100 643 l

ce} _d
/period{651 0 219 0 430 254 sc
219 254 m
430 254 l
430 0 l
219 0 l
219 254 l

ce} _d
/slash{690 0 0 -190 690 1493 sc
520 1493 m
690 1493 l
170 -190 l
0 -190 l
520 1493 l

ce} _d
/zero{1303 0 135 -29 1167 1520 sc
651 1360 m
547 1360 469 1309 416 1206 c
364 1104 338 950 338 745 c
338 540 364 387 416 284 c
469 182 547 131 651 131 c
756 131 834 182 886 284 c
939 387 965 540 965 745 c
965 950 939 1104 886 1206 c
834 1309 756 1360 651 1360 c

651 1520 m
818 1520 946 1454 1034 1321 c
1123 1189 1167 997 1167 745 c
1167 494 1123 302 1034 169 c
946 37 818 -29 651 -29 c
484 -29 356 37 267 169 c
179 302 135 494 135 745 c
135 997 179 1189 267 1321 c
356 1454 484 1520 651 1520 c

ce} _d
/one{1303 0 225 0 1114 1493 sc
254 170 m
584 170 l
584 1309 l
225 1237 l
225 1421 l
582 1493 l
784 1493 l
784 170 l
1114 170 l
1114 0 l
254 0 l
254 170 l

ce} _d
/two{1303 0 150 0 1098 1520 sc
393 170 m
1098 170 l
1098 0 l
150 0 l
150 170 l
227 249 331 356 463 489 c
596 623 679 709 713 748 c
778 821 823 882 848 932 c
874 983 887 1032 887 1081 c
887 1160 859 1225 803 1275 c
748 1325 675 1350 586 1350 c
523 1350 456 1339 385 1317 c
315 1295 240 1262 160 1217 c
160 1421 l
241 1454 317 1478 388 1495 c
459 1512 523 1520 582 1520 c
737 1520 860 1481 952 1404 c
1044 1327 1090 1223 1090 1094 c
1090 1033 1078 974 1055 919 c
1032 864 991 800 930 725 c
913 706 860 650 771 557 c
682 465 556 336 393 170 c

ce} _d
/minus{1716 0 217 557 1499 727 sc
217 727 m
1499 727 l
1499 557 l
217 557 l
217 727 l

ce} _d
/four{1303 0 100 0 1188 1493 sc
774 1317 m
264 520 l
774 520 l
774 1317 l

721 1493 m
975 1493 l
975 520 l
1188 520 l
1188 352 l
975 352 l
975 0 l
774 0 l
774 352 l
100 352 l
100 547 l
721 1493 l

ce} _d
/five{1303 0 158 -29 1124 1493 sc
221 1493 m
1014 1493 l
1014 1323 l
406 1323 l
406 957 l
435 967 465 974 494 979 c
523 984 553 987 582 987 c
749 987 881 941 978 850 c
1075 759 1124 635 1124 479 c
1124 318 1074 193 974 104 c
874 15 733 -29 551 -29 c
488 -29 424 -24 359 -13 c
294 -2 227 14 158 35 c
158 238 l
218 205 280 181 344 165 c
408 149 476 141 547 141 c
662 141 754 171 821 232 c
888 293 922 375 922 479 c
922 583 888 665 821 726 c
754 787 662 817 547 817 c
493 817 439 811 385 799 c
332 787 277 768 221 743 c
221 1493 l

ce} _d
/six{1303 0 143 -29 1174 1520 sc
676 827 m
585 827 513 796 460 734 c
407 672 381 587 381 479 c
381 372 407 287 460 224 c
513 162 585 131 676 131 c
767 131 838 162 891 224 c
944 287 971 372 971 479 c
971 587 944 672 891 734 c
838 796 767 827 676 827 c

1077 1460 m
1077 1276 l
1026 1300 975 1318 923 1331 c
872 1344 821 1350 770 1350 c
637 1350 535 1305 464 1215 c
394 1125 354 989 344 807 c
383 865 433 909 492 940 c
551 971 617 987 688 987 c
838 987 956 941 1043 850 c
1130 759 1174 636 1174 479 c
1174 326 1129 203 1038 110 c
947 17 827 -29 676 -29 c
503 -29 371 37 280 169 c
189 302 143 494 143 745 c
143 981 199 1169 311 1309 c
423 1450 573 1520 762 1520 c
813 1520 864 1515 915 1505 c
967 1495 1021 1480 1077 1460 c

ce} _d
/seven{1303 0 168 0 1128 1493 sc
168 1493 m
1128 1493 l
1128 1407 l
586 0 l
375 0 l
885 1323 l
168 1323 l
168 1493 l

ce} _d
/eight{1303 0 139 -29 1163 1520 sc
651 709 m
555 709 479 683 424 632 c
369 581 342 510 342 420 c
342 330 369 259 424 208 c
479 157 555 131 651 131 c
747 131 823 157 878 208 c
933 260 961 331 961 420 c
961 510 933 581 878 632 c
823 683 748 709 651 709 c

449 795 m
362 816 295 857 246 916 c
198 975 174 1048 174 1133 c
174 1252 216 1347 301 1416 c
386 1485 503 1520 651 1520 c
800 1520 916 1485 1001 1416 c
1086 1347 1128 1252 1128 1133 c
1128 1048 1104 975 1055 916 c
1007 857 940 816 854 795 c
951 772 1027 728 1081 662 c
1136 596 1163 515 1163 420 c
1163 275 1119 164 1030 87 c
942 10 816 -29 651 -29 c
486 -29 360 10 271 87 c
183 164 139 275 139 420 c
139 515 166 596 221 662 c
276 728 352 772 449 795 c

375 1114 m
375 1037 399 976 447 933 c
496 890 564 868 651 868 c
738 868 805 890 854 933 c
903 976 928 1037 928 1114 c
928 1191 903 1252 854 1295 c
805 1338 738 1360 651 1360 c
564 1360 496 1338 447 1295 c
399 1252 375 1191 375 1114 c

ce} _d
/bracketleft{799 0 176 -270 600 1556 sc
176 1556 m
600 1556 l
600 1413 l
360 1413 l
360 -127 l
600 -127 l
600 -270 l
176 -270 l
176 1556 l

ce} _d
/bracketright{799 0 199 -270 623 1556 sc
623 1556 m
623 -270 l
199 -270 l
199 -127 l
438 -127 l
438 1413 l
199 1413 l
199 1556 l
623 1556 l

ce} _d
end readonly def

/BuildGlyph {
 exch begin
 CharStrings exch
 2 copy known not {pop /.notdef} if
 true 3 1 roll get exec
 end
} _d

/BuildChar {
 1 index /Encoding get exch get
 1 index /BuildGlyph get exec
} _d

FontName currentdict end definefont pop
%!PS-Adobe-3.0 Resource-Font
%%Creator: Converted from TrueType to Type 3 by Matplotlib.
10 dict begin
/FontName /DejaVuSans-Oblique def
/PaintType 0 def
/FontMatrix [0.00048828125 0 0 0.00048828125 0 0] def
/FontBBox [-2080 -717 3398 2187] def
/FontType 3 def
/Encoding [/a /d /K /m /s /T /x] def
/CharStrings 8 dict dup begin
/.notdef 0 def
/a{1255 0 84 -29 1120 1147 sc
1100 639 m
975 0 l
791 0 l
825 170 l
771 103 709 53 640 20 c
571 -13 495 -29 410 -29 c
315 -29 236 0 175 58 c
114 117 84 192 84 283 c
84 414 136 517 240 593 c
345 669 489 707 672 707 c
928 707 l
938 756 l
939 761 940 767 941 773 c
942 780 942 790 942 803 c
942 862 918 908 869 941 c
821 974 753 991 666 991 c
606 991 544 983 481 968 c
418 953 354 930 287 899 c
319 1069 l
388 1095 456 1114 522 1127 c
589 1140 653 1147 715 1147 c
847 1147 947 1118 1016 1061 c
1085 1004 1120 920 1120 811 c
1120 789 1118 763 1115 733 c
1112 704 1107 672 1100 639 c

901 563 m
717 563 l
566 563 455 543 382 502 c
310 462 274 400 274 315 c
274 256 292 210 329 177 c
366 144 418 127 483 127 c
583 127 670 163 745 234 c
820 306 869 402 893 522 c
901 563 l

ce} _d
/d{1300 0 94 -29 1309 1556 sc
856 168 m
807 103 748 54 681 21 c
614 -12 539 -29 457 -29 c
345 -29 256 9 191 85 c
126 162 94 266 94 399 c
94 510 114 615 153 715 c
192 816 249 906 324 985 c
373 1038 429 1078 491 1105 c
553 1133 618 1147 686 1147 c
758 1147 821 1130 876 1095 c
931 1060 974 1011 1004 946 c
1124 1556 l
1309 1556 l
1006 0 l
821 0 l
856 168 l

285 432 m
285 335 307 260 350 206 c
394 152 455 125 532 125 c
589 125 642 139 691 166 c
740 194 784 235 821 289 c
860 345 891 410 914 483 c
937 556 948 629 948 700 c
948 793 926 865 882 917 c
839 969 779 995 702 995 c
644 995 590 981 540 954 c
490 927 447 887 412 836 c
373 781 342 716 319 643 c
296 570 285 499 285 432 c

ce} _d
/K{1343 0 55 0 1479 1493 sc
346 1493 m
549 1493 l
426 864 l
1210 1493 l
1479 1493 l
592 780 l
1241 0 l
995 0 l
399 727 l
258 0 l
55 0 l
346 1493 l

ce} _d
/m{1995 0 72 0 1855 1147 sc
1839 676 m
1708 0 l
1524 0 l
1653 670 l
1658 699 1662 723 1665 744 c
1668 765 1669 782 1669 797 c
1669 857 1652 904 1619 937 c
1586 970 1539 987 1479 987 c
1390 987 1310 953 1240 886 c
1170 819 1125 732 1104 625 c
981 0 l
797 0 l
928 670 l
933 695 937 717 940 738 c
943 759 944 778 944 795 c
944 856 927 903 894 936 c
861 970 815 987 756 987 c
665 987 585 953 515 886 c
445 819 400 732 379 625 c
256 0 l
72 0 l
291 1120 l
475 1120 l
440 946 l
490 1011 548 1061 615 1095 c
682 1130 754 1147 831 1147 c
912 1147 979 1126 1031 1083 c
1084 1040 1115 981 1126 905 c
1182 984 1247 1044 1320 1085 c
1394 1126 1472 1147 1554 1147 c
1650 1147 1724 1119 1776 1064 c
1829 1009 1855 930 1855 829 c
1855 807 1854 783 1851 756 c
1848 730 1844 703 1839 676 c

ce} _d
/s{1067 0 23 -29 1024 1147 sc
1024 1087 m
989 913 l
940 940 889 960 835 973 c
781 986 725 993 668 993 c
571 993 495 976 439 943 c
384 910 356 866 356 809 c
356 743 421 692 550 657 c
560 654 567 652 572 651 c
631 633 l
754 599 835 563 876 526 c
917 489 938 438 938 373 c
938 254 891 158 796 83 c
702 8 579 -29 426 -29 c
367 -29 304 -23 239 -12 c
174 -1 102 17 23 41 c
59 231 l
126 196 193 170 258 152 c
323 134 386 125 446 125 c
536 125 609 144 665 183 c
722 222 750 271 750 330 c
750 394 676 446 528 485 c
509 490 l
446 506 l
353 531 284 563 241 603 c
198 644 176 695 176 758 c
176 877 221 972 310 1042 c
400 1112 522 1147 676 1147 c
737 1147 796 1142 853 1132 c
911 1122 968 1107 1024 1087 c

ce} _d
/T{1251 0 88 0 1384 1493 sc
121 1493 m
1384 1493 l
1352 1323 l
819 1323 l
563 0 l
360 0 l
616 1323 l
88 1323 l
121 1493 l

ce} _d
/x{1212 0 -53 0 1229 1120 sc
1229 1120 m
715 571 l
1030 0 l
819 0 l
582 444 l
170 0 l
-53 0 l
498 590 l
205 1120 l
416 1120 l
631 715 l
1006 1120 l
1229 1120 l

ce} _d
end readonly def

/BuildGlyph {
 exch begin
 CharStrings exch
 2 copy known not {pop /.notdef} if
 true 3 1 roll get exec
 end
} _d

/BuildChar {
 1 index /Encoding get exch get
 1 index /BuildGlyph get exec
} _d

FontName currentdict end definefont pop
end
%%EndProlog
mpldict begin
-162 252 translate
936 288 0 0 clipbox
gsave
0 0 m
936 0 l
936 288 l
0 288 l
cl
1.000 setgray
fill
grestore
gsave
84.24 43.2 m
298.534737 43.2 l
298.534737 273.6 l
84.24 273.6 l
cl
1.000 setgray
fill
grestore
0.800 setlinewidth
1 setlinejoin
0 setlinecap
[] 0 setdash
0.000 setgray
gsave
/o {
gsave
newpath
translate
0.8 setlinewidth
1 setlinejoin

0 setlinecap

0 0 m
0 -3.5 l

gsave
0.000 setgray
fill
grestore
stroke
grestore
} bind def
93.9232 43.2 o
grestore
/DejaVuSans 12.000 selectfont
gsave

90.102855 27.075000 translate
0.000000 rotate
0.000000 0 m /zero glyphshow
grestore
gsave
/o {
gsave
newpath
translate
0.8 setlinewidth
1 setlinejoin

0 setlinecap

0 0 m
0 -3.5 l

gsave
0.000 setgray
fill
grestore
stroke
grestore
} bind def
139.925 43.2 o
grestore
gsave

124.643872 27.075000 translate
0.000000 rotate
0.000000 0 m /four glyphshow
7.634766 0 m /zero glyphshow
15.269531 0 m /zero glyphshow
22.904297 0 m /zero glyphshow
grestore
gsave
/o {
gsave
newpath
translate
0.8 setlinewidth
1 setlinejoin

0 setlinecap

0 0 m
0 -3.5 l

gsave
0.000 setgray
fill
grestore
stroke
grestore
} bind def
185.927 43.2 o
grestore
gsave

170.645826 27.075000 translate
0.000000 rotate
0.000000 0 m /eight glyphshow
7.634766 0 m /zero glyphshow
15.269531 0 m /zero glyphshow
22.904297 0 m /zero glyphshow
grestore
gsave
/o {
gsave
newpath
translate
0.8 setlinewidth
1 setlinejoin

0 setlinecap

0 0 m
0 -3.5 l

gsave
0.000 setgray
fill
grestore
stroke
grestore
} bind def
231.929 43.2 o
grestore
gsave

212.827468 27.075000 translate
0.000000 rotate
0.000000 0 m /one glyphshow
7.634766 0 m /two glyphshow
15.269531 0 m /zero glyphshow
22.904297 0 m /zero glyphshow
30.539062 0 m /zero glyphshow
grestore
gsave
/o {
gsave
newpath
translate
0.8 setlinewidth
1 setlinejoin

0 setlinecap

0 0 m
0 -3.5 l

gsave
0.000 setgray
fill
grestore
stroke
grestore
} bind def
277.931 43.2 o
grestore
gsave

258.829423 27.075000 translate
0.000000 rotate
0.000000 0 m /one glyphshow
7.634766 0 m /six glyphshow
15.269531 0 m /zero glyphshow
22.904297 0 m /zero glyphshow
30.539062 0 m /zero glyphshow
grestore
gsave
173.887368 11.075000 translate
0.000000 rotate
/DejaVuSans-Oblique 12.0 selectfont
0.000000 0.875000 moveto
/a glyphshow
/DejaVuSans 12.0 selectfont
7.353516 0.875000 moveto
/bracketleft glyphshow
12.035156 0.875000 moveto
/one glyphshow
19.669922 0.875000 moveto
/slash glyphshow
/DejaVuSans-Oblique 12.0 selectfont
23.712891 0.875000 moveto
/s glyphshow
/DejaVuSans 12.0 selectfont
29.964844 0.875000 moveto
/bracketright glyphshow
grestore
gsave
/o {
gsave
newpath
translate
0.8 setlinewidth
1 setlinejoin

0 setlinecap

-0 0 m
-3.5 0 l

gsave
0.000 setgray
fill
grestore
stroke
grestore
} bind def
84.24 44.4583 o
grestore
gsave

46.677500 39.895840 translate
0.000000 rotate
0.000000 0 m /one glyphshow
7.634766 0 m /two glyphshow
15.269531 0 m /five glyphshow
22.904297 0 m /zero glyphshow
grestore
gsave
/o {
gsave
newpath
translate
0.8 setlinewidth
1 setlinejoin

0 setlinecap

-0 0 m
-3.5 0 l

gsave
0.000 setgray
fill
grestore
stroke
grestore
} bind def
84.24 92.0943 o
grestore
gsave

46.677500 87.531786 translate
0.000000 rotate
0.000000 0 m /one glyphshow
7.634766 0 m /five glyphshow
15.269531 0 m /zero glyphshow
22.904297 0 m /zero glyphshow
grestore
gsave
/o {
gsave
newpath
translate
0.8 setlinewidth
1 setlinejoin

0 setlinecap

-0 0 m
-3.5 0 l

gsave
0.000 setgray
fill
grestore
stroke
grestore
} bind def
84.24 139.73 o
grestore
gsave

46.677500 135.167732 translate
0.000000 rotate
0.000000 0 m /one glyphshow
7.634766 0 m /seven glyphshow
15.269531 0 m /five glyphshow
22.904297 0 m /zero glyphshow
grestore
gsave
/o {
gsave
newpath
translate
0.8 setlinewidth
1 setlinejoin

0 setlinecap

-0 0 m
-3.5 0 l

gsave
0.000 setgray
fill
grestore
stroke
grestore
} bind def
84.24 187.366 o
grestore
gsave

46.677500 182.803678 translate
0.000000 rotate
0.000000 0 m /two glyphshow
7.634766 0 m /zero glyphshow
15.269531 0 m /zero glyphshow
22.904297 0 m /zero glyphshow
grestore
gsave
/o {
gsave
newpath
translate
0.8 setlinewidth
1 setlinejoin

0 setlinecap

-0 0 m
-3.5 0 l

gsave
0.000 setgray
fill
grestore
stroke
grestore
} bind def
84.24 235.002 o
grestore
gsave

46.677500 230.439624 translate
0.000000 rotate
0.000000 0 m /two glyphshow
7.634766 0 m /two glyphshow
15.269531 0 m /five glyphshow
22.904297 0 m /zero glyphshow
grestore
gsave
39.677500 136.400000 translate
90.000000 rotate
/DejaVuSans-Oblique 12.0 selectfont
0.000000 0.875000 moveto
/T glyphshow
/DejaVuSans-Oblique 8.399999999999999 selectfont
7.330078 -1.093750 moveto
/m glyphshow
15.512695 -1.093750 moveto
/a glyphshow
20.660156 -1.093750 moveto
/x glyphshow
/DejaVuSans 12.0 selectfont
25.959375 0.875000 moveto
/bracketleft glyphshow
/DejaVuSans-Oblique 12.0 selectfont
30.641016 0.875000 moveto
/K glyphshow
/DejaVuSans 12.0 selectfont
38.510156 0.875000 moveto
/bracketright glyphshow
grestore
1.000 setlinewidth
0.000 0.000 1.000 setrgbcolor
gsave
214.295 230.4 84.24 43.2 clipbox
/o {
gsave
newpath
translate
1.0 setlinewidth
1 setlinejoin

0 setlinecap

0 -0.5 m
0.132602 -0.5 0.25979 -0.447317 0.353553 -0.353553 c
0.447317 -0.25979 0.5 -0.132602 0.5 0 c
0.5 0.132602 0.447317 0.25979 0.353553 0.353553 c
0.25979 0.447317 0.132602 0.5 0 0.5 c
-0.132602 0.5 -0.25979 0.447317 -0.353553 0.353553 c
-0.447317 0.25979 -0.5 0.132602 -0.5 0 c
-0.5 -0.132602 -0.447317 -0.25979 -0.353553 -0.353553 c
-0.25979 -0.447317 -0.132602 -0.5 0 -0.5 c
cl

gsave
0.000 0.000 1.000 setrgbcolor
fill
grestore
stroke
grestore
} bind def
94.0382 261.828 o
94.0492 261.087 o
94.0603 260.38 o
94.0714 259.681 o
94.0825 259.04 o
94.096 258.273 o
94.1095 257.525 o
94.1302 256.465 o
94.1509 255.459 o
94.1532 255.335 o
94.1736 254.389 o
94.1762 254.299 o
94.1888 253.736 o
94.2015 253.193 o
94.2154 252.62 o
94.2293 252.064 o
94.248 251.322 o
94.2668 250.61 o
94.2855 249.93 o
94.3042 249.286 o
94.3262 248.542 o
94.3481 247.824 o
94.3705 247.106 o
94.3929 246.427 o
94.4234 245.524 o
94.4539 244.656 o
94.4791 243.966 o
94.5042 243.29 o
94.5362 242.484 o
94.5609 241.87 o
94.5681 241.691 o
94.5963 241.005 o
94.6245 240.353 o
94.6559 239.639 o
94.6873 238.941 o
94.7187 238.289 o
94.7501 237.632 o
94.7801 237.03 o
94.8101 236.435 o
94.8402 235.852 o
94.8702 235.299 o
94.9015 234.717 o
94.9327 234.163 o
94.9953 233.077 o
95.0533 232.107 o
95.1112 231.17 o
95.1702 230.272 o
95.2292 229.393 o
95.2882 228.54 o
95.3472 227.715 o
95.4072 226.892 o
95.4671 226.11 o
95.5297 225.316 o
95.5922 224.53 o
95.6548 223.79 o
95.7173 223.055 o
95.78 222.338 o
95.8426 221.642 o
95.9078 220.939 o
95.973 220.246 o
95.9781 220.193 o
96.0384 219.559 o
96.0988 218.97 o
96.161 218.354 o
96.2233 217.751 o
96.3383 216.67 o
96.4533 215.64 o
96.5332 214.938 o
96.6132 214.253 o
96.6932 213.581 o
96.7731 212.925 o
96.8541 212.29 o
96.9351 211.644 o
97.0162 211.035 o
97.0972 210.433 o
97.178 209.837 o
97.2588 209.25 o
97.3396 208.688 o
97.4204 208.128 o
97.581 207.038 o
97.7417 206.001 o
97.9068 204.958 o
98.0718 203.96 o
98.2285 203.023 o
98.3851 202.135 o
98.5417 201.269 o
98.6984 200.425 o
98.859 199.579 o
99.0197 198.754 o
99.1849 197.927 o
99.3501 197.124 o
99.5117 196.348 o
99.6734 195.606 o
99.8172 194.958 o
99.9609 194.322 o
100.105 193.691 o
100.248 193.085 o
100.398 192.454 o
100.547 191.84 o
100.696 191.229 o
100.845 190.643 o
101.036 189.892 o
101.226 189.187 o
101.421 188.457 o
101.616 187.752 o
101.8 187.09 o
101.984 186.442 o
102.168 185.825 o
102.247 185.553 o
102.352 185.207 o
102.509 184.683 o
102.692 184.096 o
102.874 183.514 o
103.058 182.92 o
103.242 182.368 o
103.428 181.805 o
103.614 181.249 o
103.811 180.673 o
104.008 180.104 o
104.222 179.492 o
104.437 178.898 o
104.823 177.854 o
105.123 177.055 o
105.424 176.259 o
105.711 175.544 o
105.999 174.838 o
106.286 174.141 o
106.574 173.463 o
106.866 172.778 o
107.159 172.093 o
107.206 171.998 o
107.499 171.339 o
107.839 170.595 o
108.143 169.945 o
108.446 169.307 o
108.89 168.391 o
109.333 167.497 o
109.855 166.469 o
110.377 165.475 o
110.378 165.472 o
110.931 164.46 o
111.485 163.461 o
111.503 163.431 o
112.092 162.399 o
112.681 161.408 o
112.681 161.407 o
113.214 160.526 o
113.746 159.666 o
114.278 158.829 o
114.81 157.993 o
115.404 157.116 o
115.997 156.233 o
116.461 155.576 o
116.924 154.927 o
117.501 154.126 o
118.219 153.135 o
118.939 152.208 o
119.716 151.2 o
120.494 150.23 o
121.38 149.155 o
122.173 148.211 o
122.965 147.308 o
123.807 146.356 o
124.688 145.392 o
125.597 144.424 o
126.533 143.435 o
126.578 143.392 o
127.559 142.405 o
128.551 141.41 o
129.544 140.455 o
129.619 140.385 o
130.686 139.391 o
131.755 138.402 o
132.831 137.438 o
132.91 137.371 o
134.065 136.379 o
135.225 135.386 o
136.389 134.418 o
136.475 134.349 o
137.724 133.352 o
138.971 132.379 o
140.316 131.328 o
141.662 130.335 o
142.972 129.376 o
144.386 128.371 o
145.8 127.383 o
147.212 126.426 o
148.681 125.436 o
150.159 124.473 o
150.266 124.403 o
151.851 123.411 o
153.438 122.418 o
155.029 121.46 o
155.156 121.384 o
156.874 120.37 o
158.56 119.374 o
160.245 118.428 o
160.381 118.355 o
162.202 117.343 o
163.997 116.357 o
165.811 115.402 o
165.928 115.333 o
167.858 114.34 o
169.777 113.351 o
171.709 112.386 o
171.873 112.304 o
172.839 111.828 o
173.968 111.28 o
176.02 110.287 o
178.077 109.31 o
180.172 108.345 o
180.296 108.288 o
182.515 107.275 o
184.696 106.296 o
186.913 105.314 o
187.049 105.255 o
189.402 104.231 o
191.689 103.252 o
194.016 102.261 o
194.157 102.206 o
196.626 101.177 o
199.024 100.196 o
201.457 99.2198 o
201.596 99.1634 o
204.168 98.1331 o
206.652 97.1465 o
209.158 96.1556 o
209.351 96.0845 o
210.587 95.6058 o
212.017 95.0376 o
214.522 94.084 o
217.288 93.0127 o
220.025 91.9709 o
222.64 90.9896 o
225.422 89.938 o
225.5 89.908 o
228.283 88.8645 o
230.926 87.8671 o
233.688 86.8188 o
233.87 86.7558 o
236.631 85.702 o
239.254 84.7027 o
240.708 84.1497 o
242.162 83.5958 o
244.915 82.5476 o
247.507 81.5402 o
247.53 81.5262 o
250.078 80.5263 o
250.174 80.4882 o
251.626 79.9099 o
251.674 79.8895 o
253.173 79.2892 o
255.575 78.3073 o
258.009 77.3002 o
258.062 77.2712 o
259.55 76.64 o
261.038 76.0056 o
263.263 75.0325 o
265.539 74.0022 o
266.985 73.3384 o
268.431 72.6551 o
270.452 71.663 o
272.423 70.6455 o
273.354 70.1499 o
275.179 69.1494 o
276.855 68.1866 o
277.916 67.53 o
278.825 66.9567 o
279.733 66.3479 o
280.794 65.6092 o
281.562 65.0478 o
282.329 64.4505 o
283.097 63.8191 o
283.865 63.1273 o
284.169 62.8407 o
284.464 62.55 o
284.473 62.5428 o
285.081 61.907 o
285.347 61.6134 o
285.612 61.2963 o
285.614 61.2945 o
286.142 60.6175 o
286.593 59.9616 o
286.797 59.628 o
287.002 59.2748 o
287.186 58.9214 o
287.371 58.5268 o
287.411 58.4363 o
grestore
2 setlinecap
0.000 setgray
gsave
214.295 230.4 84.24 43.2 clipbox
94.038172 256.44541 m
95.393134 228.01711 l
96.167398 218.721775 l
97.135228 210.378732 l
98.103058 203.917845 l
99.264454 197.634081 l
100.619416 191.607448 l
101.974377 186.531799 l
103.522905 181.552302 l
105.264999 176.708255 l
107.200659 172.029676 l
109.136319 167.905709 l
111.265544 163.865464 l
113.588336 159.929378 l
116.104694 156.093355 l
119.008184 152.116959 l
122.105239 148.300764 l
125.202295 144.846018 l
128.686482 141.286549 l
132.17067 138.031729 l
136.04199 134.709529 l
140.300441 131.349426 l
144.558893 128.251538 l
149.591608 124.842907 l
154.81789 121.588046 l
161.205567 117.896815 l
167.399678 114.575631 l
175.142317 110.711675 l
182.110693 107.459869 l
190.821162 103.623346 l
200.499461 99.603898 l
215.404041 93.742302 l
229.147225 88.538286 l
250.052351 80.535176 l
258.76282 76.974698 l
266.892591 73.378546 l
271.731741 71.002004 l
276.183758 68.571802 l
279.280814 66.647696 l
281.990737 64.707822 l
283.926397 63.055375 l
285.474925 61.427081 l
286.442755 60.124826 l
287.410585 58.558983 l
287.410585 58.558983 l
stroke
grestore
0.400 setlinewidth
0.700 0.000 0.000 setrgbcolor
gsave
214.295 230.4 84.24 43.2 clipbox
288.793137 53.672727 m
288.701701 55.066484 l
288.386536 56.460242 l
287.838706 57.873091 l
287.036765 59.324126 l
285.946124 60.832439 l
284.518007 62.417121 l
283.70583 63.199916 l
283.70583 63.199916 l
stroke
grestore
1.000 setlinewidth
0 setlinecap
1.000 0.000 0.000 setrgbcolor
gsave
214.295 230.4 84.24 43.2 clipbox
/o {
gsave
newpath
translate
1.0 setlinewidth
1 setlinejoin

0 setlinecap

0 -0.75 m
0.198902 -0.75 0.389685 -0.670975 0.53033 -0.53033 c
0.670975 -0.389685 0.75 -0.198902 0.75 0 c
0.75 0.198902 0.670975 0.389685 0.53033 0.53033 c
0.389685 0.670975 0.198902 0.75 0 0.75 c
-0.198902 0.75 -0.389685 0.670975 -0.53033 0.53033 c
-0.670975 0.389685 -0.75 0.198902 -0.75 0 c
-0.75 -0.198902 -0.670975 -0.389685 -0.53033 -0.53033 c
-0.389685 -0.670975 -0.198902 -0.75 0 -0.75 c
cl

gsave
1.000 0.000 0.000 setrgbcolor
fill
grestore
stroke
grestore
} bind def
93.9807 263.127 o
94.0037 262.608 o
94.0267 262.088 o
grestore
0.800 setlinewidth
0 setlinejoin
2 setlinecap
0.000 setgray
gsave
84.24 43.2 m
84.24 273.6 l
stroke
grestore
gsave
298.534737 43.2 m
298.534737 273.6 l
stroke
grestore
gsave
84.24 43.2 m
298.534737 43.2 l
stroke
grestore
gsave
84.24 273.6 m
298.534737 273.6 l
stroke
grestore
gsave
384.252632 43.2 m
598.547368 43.2 l
598.547368 273.6 l
384.252632 273.6 l
cl
1.000 setgray
fill
grestore
1 setlinejoin
0 setlinecap
gsave
/o {
gsave
newpath
translate
0.8 setlinewidth
1 setlinejoin

0 setlinecap

0 0 m
0 -3.5 l

gsave
0.000 setgray
fill
grestore
stroke
grestore
} bind def
393.877 43.2 o
grestore
gsave

390.057127 27.075000 translate
0.000000 rotate
0.000000 0 m /zero glyphshow
grestore
gsave
/o {
gsave
newpath
translate
0.8 setlinewidth
1 setlinejoin

0 setlinecap

0 0 m
0 -3.5 l

gsave
0.000 setgray
fill
grestore
stroke
grestore
} bind def
442.61 43.2 o
grestore
gsave

429.242567 27.075000 translate
0.000000 rotate
0.000000 0 m /zero glyphshow
7.634766 0 m /period glyphshow
11.449219 0 m /two glyphshow
19.083984 0 m /five glyphshow
grestore
gsave
/o {
gsave
newpath
translate
0.8 setlinewidth
1 setlinejoin

0 setlinecap

0 0 m
0 -3.5 l

gsave
0.000 setgray
fill
grestore
stroke
grestore
} bind def
491.342 43.2 o
grestore
gsave

481.795194 27.075000 translate
0.000000 rotate
0.000000 0 m /zero glyphshow
7.634766 0 m /period glyphshow
11.449219 0 m /five glyphshow
grestore
gsave
/o {
gsave
newpath
translate
0.8 setlinewidth
1 setlinejoin

0 setlinecap

0 0 m
0 -3.5 l

gsave
0.000 setgray
fill
grestore
stroke
grestore
} bind def
540.074 43.2 o
grestore
gsave

526.707196 27.075000 translate
0.000000 rotate
0.000000 0 m /zero glyphshow
7.634766 0 m /period glyphshow
11.449219 0 m /seven glyphshow
19.083984 0 m /five glyphshow
grestore
gsave
/o {
gsave
newpath
translate
0.8 setlinewidth
1 setlinejoin

0 setlinecap

0 0 m
0 -3.5 l

gsave
0.000 setgray
fill
grestore
stroke
grestore
} bind def
588.807 43.2 o
grestore
gsave

584.986386 27.075000 translate
0.000000 rotate
0.000000 0 m /one glyphshow
grestore
gsave
462.900000 10.575000 translate
0.000000 rotate
/DejaVuSans-Oblique 12.0 selectfont
0.000000 0.875000 moveto
/a glyphshow
/DejaVuSans 12.0 selectfont
7.353516 0.875000 moveto
/slash glyphshow
/DejaVuSans-Oblique 12.0 selectfont
11.396484 0.875000 moveto
/a glyphshow
/DejaVuSans-Oblique 8.399999999999999 selectfont
18.750000 -1.093750 moveto
/m glyphshow
26.932617 -1.093750 moveto
/a glyphshow
32.080078 -1.093750 moveto
/x glyphshow
/DejaVuSans 12.0 selectfont
37.379297 0.875000 moveto
/bracketleft glyphshow
42.060937 0.875000 moveto
/minus glyphshow
52.115625 0.875000 moveto
/bracketright glyphshow
grestore
gsave
/o {
gsave
newpath
translate
0.8 setlinewidth
1 setlinejoin

0 setlinecap

-0 0 m
-3.5 0 l

gsave
0.000 setgray
fill
grestore
stroke
grestore
} bind def
384.253 63.74 o
grestore
gsave

334.721382 59.177480 translate
0.000000 rotate
0.000000 0 m /hyphen glyphshow
4.330078 0 m /two glyphshow
11.964844 0 m /four glyphshow
19.599609 0 m /zero glyphshow
27.234375 0 m /zero glyphshow
34.869141 0 m /zero glyphshow
grestore
gsave
/o {
gsave
newpath
translate
0.8 setlinewidth
1 setlinejoin

0 setlinecap

-0 0 m
-3.5 0 l

gsave
0.000 setgray
fill
grestore
stroke
grestore
} bind def
384.253 114.391 o
grestore
gsave

334.721382 109.828214 translate
0.000000 rotate
0.000000 0 m /hyphen glyphshow
4.330078 0 m /one glyphshow
11.964844 0 m /eight glyphshow
19.599609 0 m /zero glyphshow
27.234375 0 m /zero glyphshow
34.869141 0 m /zero glyphshow
grestore
gsave
/o {
gsave
newpath
translate
0.8 setlinewidth
1 setlinejoin

0 setlinecap

-0 0 m
-3.5 0 l

gsave
0.000 setgray
fill
grestore
stroke
grestore
} bind def
384.253 165.041 o
grestore
gsave

334.721382 160.478948 translate
0.000000 rotate
0.000000 0 m /hyphen glyphshow
4.330078 0 m /one glyphshow
11.964844 0 m /two glyphshow
19.599609 0 m /zero glyphshow
27.234375 0 m /zero glyphshow
34.869141 0 m /zero glyphshow
grestore
gsave
/o {
gsave
newpath
translate
0.8 setlinewidth
1 setlinejoin

0 setlinecap

-0 0 m
-3.5 0 l

gsave
0.000 setgray
fill
grestore
stroke
grestore
} bind def
384.253 215.692 o
grestore
gsave

342.362007 211.129682 translate
0.000000 rotate
0.000000 0 m /hyphen glyphshow
4.330078 0 m /six glyphshow
11.964844 0 m /zero glyphshow
19.599609 0 m /zero glyphshow
27.234375 0 m /zero glyphshow
grestore
gsave
/o {
gsave
newpath
translate
0.8 setlinewidth
1 setlinejoin

0 setlinecap

-0 0 m
-3.5 0 l

gsave
0.000 setgray
fill
grestore
stroke
grestore
} bind def
384.253 266.343 o
grestore
gsave

369.612007 261.780416 translate
0.000000 rotate
0.000000 0 m /zero glyphshow
grestore
gsave
327.721382 103.400000 translate
90.000000 rotate
/DejaVuSans-Oblique 12.0 selectfont
0.000000 0.875000 moveto
/d glyphshow
7.617188 0.875000 moveto
/T glyphshow
/DejaVuSans-Oblique 8.399999999999999 selectfont
14.947266 -1.093750 moveto
/m glyphshow
23.129883 -1.093750 moveto
/a glyphshow
28.277344 -1.093750 moveto
/x glyphshow
/DejaVuSans 12.0 selectfont
33.576562 0.875000 moveto
/slash glyphshow
/DejaVuSans-Oblique 12.0 selectfont
37.619531 0.875000 moveto
/d glyphshow
/DejaVuSans 12.0 selectfont
45.236719 0.875000 moveto
/parenleft glyphshow
/DejaVuSans-Oblique 12.0 selectfont
49.918359 0.875000 moveto
/a glyphshow
/DejaVuSans 12.0 selectfont
57.271875 0.875000 moveto
/slash glyphshow
/DejaVuSans-Oblique 12.0 selectfont
61.314844 0.875000 moveto
/a glyphshow
/DejaVuSans-Oblique 8.399999999999999 selectfont
68.668359 -1.093750 moveto
/m glyphshow
76.850977 -1.093750 moveto
/a glyphshow
81.998437 -1.093750 moveto
/x glyphshow
/DejaVuSans 12.0 selectfont
87.297656 0.875000 moveto
/parenright glyphshow
91.979297 0.875000 moveto
/bracketleft glyphshow
/DejaVuSans-Oblique 12.0 selectfont
96.660937 0.875000 moveto
/K glyphshow
/DejaVuSans 12.0 selectfont
104.530078 0.875000 moveto
/bracketright glyphshow
grestore
1.000 setlinewidth
2 setlinecap
gsave
214.295 230.4 384.253 43.2 clipbox
393.993301 53.672727 m
396.528411 188.343153 l
397.113436 201.043042 l
397.698461 209.769158 l
398.478495 218.065157 l
399.258528 224.056322 l
400.038562 228.641662 l
401.013604 233.062641 l
401.988646 236.514719 l
402.963688 239.270266 l
403.93873 241.518469 l
405.108781 243.747636 l
406.473839 245.907542 l
408.033907 247.868306 l
409.593974 249.454307 l
411.544058 251.127975 l
413.299134 252.31503 l
416.419268 254.073038 l
420.709453 255.776852 l
423.829587 256.782774 l
427.14473 257.606787 l
433.970025 258.955479 l
436.895151 259.395422 l
438.650226 259.621708 l
440.405302 259.789392 l
442.355386 260.073722 l
449.765705 260.7515 l
452.300815 260.979362 l
454.250899 261.125434 l
456.786008 261.278566 l
458.9311 261.396359 l
460.881185 261.571615 l
464.586344 261.742459 l
468.096496 261.927879 l
471.21663 262.04799 l
481.942092 262.430411 l
516.263572 263.030149 l
520.16374 263.086976 l
528.74411 263.123466 l
558.580396 262.757882 l
566.185724 262.450927 l
569.11085 262.270414 l
577.301203 261.402736 l
579.836312 260.833997 l
582.371421 260.087547 l
583.541472 259.525166 l
584.711522 258.731839 l
585.491556 258.025641 l
586.271589 257.020415 l
586.856615 255.909855 l
588.026665 253.223513 l
588.806699 251.825914 l
588.806699 251.825914 l
stroke
grestore
1.500 setlinewidth
1.000 0.000 0.000 setrgbcolor
gsave
214.295 230.4 384.253 43.2 clipbox
569.313773 251.825914 m
588.806699 251.825914 l
stroke
grestore
0 setlinecap
[1.5 2.475] 0 setdash
0.700 setgray
gsave
214.295 230.4 384.253 43.2 clipbox
393.993301 257.901127 m
588.806699 257.901127 l
stroke
grestore
2 setlinecap
[] 0 setdash
1.000 0.000 0.000 setrgbcolor
gsave
214.295 230.4 384.253 43.2 clipbox
569.500866 262.233148 m
569.695875 262.21383 l
569.890883 262.196032 l
570.085892 262.180405 l
570.2809 262.1649 l
570.475908 262.148662 l
570.670917 262.131691 l
570.865925 262.113986 l
571.060934 262.095548 l
571.255942 262.076377 l
571.45095 262.056421 l
571.645959 262.034709 l
571.840967 262.011961 l
572.035976 261.990496 l
572.230984 261.970516 l
572.425992 261.951548 l
572.621001 261.933593 l
572.816009 261.916649 l
573.011018 261.900184 l
573.206026 261.883334 l
573.401035 261.865769 l
573.596043 261.846668 l
573.791051 261.825411 l
573.98606 261.803143 l
574.181068 261.780813 l
574.376077 261.75842 l
574.571085 261.735964 l
574.766093 261.714249 l
574.961102 261.693624 l
575.15611 261.673634 l
575.351119 261.654279 l
575.546127 261.6352 l
575.741135 261.615566 l
575.936144 261.594902 l
576.131152 261.573209 l
576.326161 261.550487 l
576.521169 261.52548 l
576.716177 261.497726 l
576.911186 261.468017 l
577.106194 261.436354 l
577.301203 261.402736 l
577.496211 261.367132 l
577.691219 261.328887 l
577.886228 261.28738 l
578.081236 261.242611 l
578.276245 261.196815 l
578.471253 261.152586 l
578.666261 261.108957 l
578.86127 261.064596 l
579.056278 261.019505 l
579.251287 260.973747 l
579.446295 260.927717 l
579.641304 260.881288 l
579.836312 260.833997 l
580.03132 260.784597 l
580.226329 260.732206 l
580.421337 260.679511 l
580.616346 260.627319 l
580.811354 260.574114 l
581.006362 260.519863 l
581.201371 260.465202 l
581.396379 260.409784 l
581.591388 260.352592 l
581.786396 260.293627 l
581.981404 260.231564 l
582.176413 260.162665 l
582.371421 260.087547 l
582.56643 260.009241 l
582.761438 259.926566 l
582.956446 259.835514 l
583.151455 259.736673 l
583.346463 259.633456 l
583.541472 259.525166 l
583.73648 259.410788 l
583.931488 259.291486 l
584.126497 259.166546 l
584.321505 259.030696 l
584.516514 258.883231 l
584.711522 258.731839 l
584.90653 258.576999 l
585.101539 258.410466 l
585.296547 258.227426 l
585.491556 258.025641 l
585.686564 257.805921 l
585.881572 257.566192 l
586.076581 257.304776 l
586.271589 257.020415 l
586.466598 256.698887 l
586.661606 256.329793 l
586.856615 255.909855 l
587.051623 255.428523 l
587.246631 254.920558 l
587.44164 254.436226 l
587.636648 253.9887 l
587.831657 253.583414 l
588.026665 253.223513 l
588.221673 252.874113 l
588.416682 252.524713 l
588.61169 252.175314 l
588.806699 251.825914 l
stroke
grestore
0.800 setlinewidth
0 setlinejoin
0.000 setgray
gsave
384.252632 43.2 m
384.252632 273.6 l
stroke
grestore
gsave
598.547368 43.2 m
598.547368 273.6 l
stroke
grestore
gsave
384.252632 43.2 m
598.547368 43.2 l
stroke
grestore
gsave
384.252632 273.6 m
598.547368 273.6 l
stroke
grestore
gsave
684.265263 43.2 m
898.56 43.2 l
898.56 273.6 l
684.265263 273.6 l
cl
1.000 setgray
fill
grestore
1 setlinejoin
0 setlinecap
gsave
/o {
gsave
newpath
translate
0.8 setlinewidth
1 setlinejoin

0 setlinecap

0 0 m
0 -3.5 l

gsave
0.000 setgray
fill
grestore
stroke
grestore
} bind def
693.89 43.2 o
grestore
gsave

690.069759 27.075000 translate
0.000000 rotate
0.000000 0 m /zero glyphshow
grestore
gsave
/o {
gsave
newpath
translate
0.8 setlinewidth
1 setlinejoin

0 setlinecap

0 0 m
0 -3.5 l

gsave
0.000 setgray
fill
grestore
stroke
grestore
} bind def
742.622 43.2 o
grestore
gsave

729.255198 27.075000 translate
0.000000 rotate
0.000000 0 m /zero glyphshow
7.634766 0 m /period glyphshow
11.449219 0 m /two glyphshow
19.083984 0 m /five glyphshow
grestore
gsave
/o {
gsave
newpath
translate
0.8 setlinewidth
1 setlinejoin

0 setlinecap

0 0 m
0 -3.5 l

gsave
0.000 setgray
fill
grestore
stroke
grestore
} bind def
791.355 43.2 o
grestore
gsave

781.807826 27.075000 translate
0.000000 rotate
0.000000 0 m /zero glyphshow
7.634766 0 m /period glyphshow
11.449219 0 m /five glyphshow
grestore
gsave
/o {
gsave
newpath
translate
0.8 setlinewidth
1 setlinejoin

0 setlinecap

0 0 m
0 -3.5 l

gsave
0.000 setgray
fill
grestore
stroke
grestore
} bind def
840.087 43.2 o
grestore
gsave

826.719828 27.075000 translate
0.000000 rotate
0.000000 0 m /zero glyphshow
7.634766 0 m /period glyphshow
11.449219 0 m /seven glyphshow
19.083984 0 m /five glyphshow
grestore
gsave
/o {
gsave
newpath
translate
0.8 setlinewidth
1 setlinejoin

0 setlinecap

0 0 m
0 -3.5 l

gsave
0.000 setgray
fill
grestore
stroke
grestore
} bind def
888.819 43.2 o
grestore
gsave

884.999018 27.075000 translate
0.000000 rotate
0.000000 0 m /one glyphshow
grestore
gsave
762.912632 10.575000 translate
0.000000 rotate
/DejaVuSans-Oblique 12.0 selectfont
0.000000 0.875000 moveto
/a glyphshow
/DejaVuSans 12.0 selectfont
7.353516 0.875000 moveto
/slash glyphshow
/DejaVuSans-Oblique 12.0 selectfont
11.396484 0.875000 moveto
/a glyphshow
/DejaVuSans-Oblique 8.399999999999999 selectfont
18.750000 -1.093750 moveto
/m glyphshow
26.932617 -1.093750 moveto
/a glyphshow
32.080078 -1.093750 moveto
/x glyphshow
/DejaVuSans 12.0 selectfont
37.379297 0.875000 moveto
/bracketleft glyphshow
42.060937 0.875000 moveto
/minus glyphshow
52.115625 0.875000 moveto
/bracketright glyphshow
grestore
gsave
/o {
gsave
newpath
translate
0.8 setlinewidth
1 setlinejoin

0 setlinecap

-0 0 m
-3.5 0 l

gsave
0.000 setgray
fill
grestore
stroke
grestore
} bind def
684.265 61.1998 o
grestore
gsave

669.624638 56.637294 translate
0.000000 rotate
0.000000 0 m /zero glyphshow
grestore
gsave
/o {
gsave
newpath
translate
0.8 setlinewidth
1 setlinejoin

0 setlinecap

-0 0 m
-3.5 0 l

gsave
0.000 setgray
fill
grestore
stroke
grestore
} bind def
684.265 121.186 o
grestore
gsave

631.421513 116.623700 translate
0.000000 rotate
0.000000 0 m /four glyphshow
7.634766 0 m /zero glyphshow
15.269531 0 m /zero glyphshow
22.904297 0 m /zero glyphshow
30.539062 0 m /zero glyphshow
38.173828 0 m /zero glyphshow
grestore
gsave
/o {
gsave
newpath
translate
0.8 setlinewidth
1 setlinejoin

0 setlinecap

-0 0 m
-3.5 0 l

gsave
0.000 setgray
fill
grestore
stroke
grestore
} bind def
684.265 181.173 o
grestore
gsave

631.421513 176.610106 translate
0.000000 rotate
0.000000 0 m /eight glyphshow
7.634766 0 m /zero glyphshow
15.269531 0 m /zero glyphshow
22.904297 0 m /zero glyphshow
30.539062 0 m /zero glyphshow
38.173828 0 m /zero glyphshow
grestore
gsave
/o {
gsave
newpath
translate
0.8 setlinewidth
1 setlinejoin

0 setlinecap

-0 0 m
-3.5 0 l

gsave
0.000 setgray
fill
grestore
stroke
grestore
} bind def
684.265 241.159 o
grestore
gsave

625.437138 236.596512 translate
0.000000 rotate
0.000000 0 m /one glyphshow
7.634766 0 m /period glyphshow
11.449219 0 m /two glyphshow
19.083984 0 m /e glyphshow
26.466797 0 m /plus glyphshow
36.521484 0 m /zero glyphshow
44.156250 0 m /six glyphshow
grestore
gsave
618.437138 97.400000 translate
90.000000 rotate
/DejaVuSans-Oblique 12.0 selectfont
0.000000 0.171875 moveto
/d glyphshow
/DejaVuSans 8.399999999999999 selectfont
8.511875 4.765625 moveto
/two glyphshow
/DejaVuSans-Oblique 12.0 selectfont
14.184336 0.171875 moveto
/T glyphshow
/DejaVuSans-Oblique 8.399999999999999 selectfont
21.514414 -1.796875 moveto
/m glyphshow
29.697031 -1.796875 moveto
/a glyphshow
34.844492 -1.796875 moveto
/x glyphshow
/DejaVuSans 12.0 selectfont
40.143711 0.171875 moveto
/slash glyphshow
/DejaVuSans-Oblique 12.0 selectfont
44.186680 0.171875 moveto
/d glyphshow
/DejaVuSans 12.0 selectfont
51.803867 0.171875 moveto
/parenleft glyphshow
/DejaVuSans-Oblique 12.0 selectfont
56.485508 0.171875 moveto
/a glyphshow
/DejaVuSans 12.0 selectfont
63.839023 0.171875 moveto
/slash glyphshow
/DejaVuSans-Oblique 12.0 selectfont
67.881992 0.171875 moveto
/a glyphshow
/DejaVuSans-Oblique 8.399999999999999 selectfont
75.235508 -1.796875 moveto
/m glyphshow
83.418125 -1.796875 moveto
/a glyphshow
88.565586 -1.796875 moveto
/x glyphshow
/DejaVuSans 12.0 selectfont
93.864805 0.171875 moveto
/parenright glyphshow
/DejaVuSans 8.399999999999999 selectfont
98.661289 4.765625 moveto
/two glyphshow
/DejaVuSans 12.0 selectfont
104.333750 0.171875 moveto
/bracketleft glyphshow
/DejaVuSans-Oblique 12.0 selectfont
109.015391 0.171875 moveto
/K glyphshow
/DejaVuSans 12.0 selectfont
116.884531 0.171875 moveto
/bracketright glyphshow
grestore
1.000 setlinewidth
2 setlinecap
gsave
214.295 230.4 684.265 43.2 clipbox
694.005933 242.90683 m
694.980975 263.127273 l
695.175983 261.814414 l
695.566 247.091941 l
695.956017 224.685127 l
696.541042 173.050063 l
696.931059 139.097826 l
697.321076 119.936058 l
697.906101 103.21739 l
698.491126 93.195273 l
699.076152 86.571093 l
699.661177 81.86562 l
700.44121 77.521437 l
701.221244 74.502111 l
702.196286 71.7371 l
703.366336 69.389418 l
704.536387 67.81701 l
707.266505 65.556445 l
709.02158 64.651274 l
712.72674 63.459796 l
714.091799 63.212599 l
715.456858 63.1366 l
717.60195 62.664818 l
718.381984 62.672124 l
719.552034 62.483245 l
720.722085 62.395323 l
723.257194 62.218083 l
725.402286 62.030954 l
729.88748 61.914784 l
731.05753 61.716723 l
733.202623 61.863983 l
734.76269 61.605945 l
737.102791 61.804961 l
739.442892 61.508752 l
740.80795 61.77264 l
741.587984 61.658822 l
742.563026 61.533684 l
748.998303 61.560985 l
750.363362 61.619782 l
753.09348 61.429561 l
754.26353 61.535655 l
755.823598 61.373635 l
757.188656 61.279443 l
758.163698 61.452752 l
759.13874 61.598406 l
760.113782 61.468071 l
761.478841 61.273261 l
762.8439 61.34146 l
764.793984 61.464504 l
768.694152 61.253337 l
773.179346 61.36081 l
776.494489 61.322316 l
779.419615 61.354178 l
781.369699 61.260381 l
790.535094 61.287639 l
793.46022 61.290166 l
794.825279 61.31193 l
796.970371 61.28385 l
800.090506 61.294032 l
804.380691 61.238569 l
810.425951 61.208062 l
811.400993 61.140493 l
813.936102 61.286491 l
815.49617 61.118548 l
817.446254 61.256863 l
819.201329 61.258873 l
825.441598 61.210225 l
827.976708 61.202264 l
831.486859 61.171576 l
860.153095 61.143938 l
861.518153 61.084043 l
863.663246 61.019566 l
865.223313 61.031768 l
866.78338 61.059059 l
871.65859 60.844115 l
876.143784 60.781957 l
882.384053 59.826304 l
883.94412 58.966937 l
884.724154 58.367755 l
885.504187 57.356508 l
885.894204 56.515939 l
886.869246 53.999269 l
887.259263 53.680795 l
887.64928 53.761744 l
888.039297 54.248072 l
888.81933 55.578449 l
888.81933 55.578449 l
stroke
grestore
1.500 setlinewidth
1.000 0.000 0.000 setrgbcolor
gsave
214.295 230.4 684.265 43.2 clipbox
869.326404 53.672727 m
888.81933 53.672727 l
stroke
grestore
0 setlinecap
[1.5 2.475] 0 setdash
0.700 setgray
gsave
214.295 230.4 684.265 43.2 clipbox
694.005933 53.701493 m
888.81933 53.701493 l
stroke
grestore
2 setlinecap
[] 0 setdash
1.000 0.000 0.000 setrgbcolor
gsave
214.295 230.4 684.265 43.2 clipbox
869.513498 60.88964 m
869.708506 60.890534 l
869.903515 60.891015 l
870.098523 60.891086 l
870.293532 60.890748 l
870.48854 60.889847 l
870.683548 60.885356 l
870.878557 60.874469 l
871.073565 60.861565 l
871.268574 60.851993 l
871.463582 60.846332 l
871.65859 60.844115 l
871.853599 60.845342 l
872.048607 60.849486 l
872.243616 60.855219 l
872.438624 60.862374 l
872.633632 60.870064 l
872.828641 60.873867 l
873.023649 60.871815 l
873.218658 60.866241 l
873.413666 60.858546 l
873.608675 60.84873 l
873.803683 60.838113 l
873.998691 60.82921 l
874.1937 60.823094 l
874.388708 60.82045 l
874.583717 60.822349 l
874.778725 60.827095 l
874.973733 60.831337 l
875.168742 60.833672 l
875.36375 60.8341 l
875.558759 60.83059 l
875.753767 60.820309 l
875.948775 60.803688 l
876.143784 60.781957 l
876.338792 60.755472 l
876.533801 60.725374 l
876.728809 60.692275 l
876.923817 60.655384 l
877.118826 60.614087 l
877.313834 60.571828 l
877.508843 60.535066 l
877.703851 60.50508 l
877.898859 60.478821 l
878.093868 60.454976 l
878.288876 60.43364 l
878.483885 60.415943 l
878.678893 60.403406 l
878.873901 60.396063 l
879.06891 60.390021 l
879.263918 60.378412 l
879.458927 60.361417 l
879.653935 60.344748 l
879.848943 60.329017 l
880.043952 60.312634 l
880.23896 60.295741 l
880.433969 60.278358 l
880.628977 60.259721 l
880.823986 60.240517 l
881.018994 60.22154 l
881.214002 60.196013 l
881.409011 60.157409 l
881.604019 60.11003 l
881.799028 60.057226 l
881.994036 59.993284 l
882.189044 59.914546 l
882.384053 59.826304 l
882.579061 59.732238 l
882.77407 59.631967 l
882.969078 59.530633 l
883.164086 59.431758 l
883.359095 59.325839 l
883.554103 59.205153 l
883.749112 59.081709 l
883.94412 58.966937 l
884.139128 58.849228 l
884.334137 58.713022 l
884.529145 58.553049 l
884.724154 58.367755 l
884.919162 58.155448 l
885.11417 57.91833 l
885.309179 57.659404 l
885.504187 57.356508 l
885.699196 56.977296 l
885.894204 56.515939 l
886.089212 55.971674 l
886.284221 55.375345 l
886.479229 54.812242 l
886.674238 54.346197 l
886.869246 53.999269 l
887.064254 53.782814 l
887.259263 53.680795 l
887.454271 53.672727 l
887.64928 53.761744 l
887.844288 53.961487 l
888.039297 54.248072 l
888.234305 54.580666 l
888.429313 54.91326 l
888.624322 55.245855 l
888.81933 55.578449 l
stroke
grestore
0.800 setlinewidth
0 setlinejoin
0.000 setgray
gsave
684.265263 43.2 m
684.265263 273.6 l
stroke
grestore
gsave
898.56 43.2 m
898.56 273.6 l
stroke
grestore
gsave
684.265263 43.2 m
898.56 43.2 l
stroke
grestore
gsave
684.265263 273.6 m
898.56 273.6 l
stroke
grestore

end
showpage
