{
    "additional": {},
    "boundary": {
        "inletpressure": 101325.0,
        "inlettemperature": [
            320.0000002190059,
            453.0
        ]
    },
    "efield": {},
    "flameacoustics": {},
    "gasmixture": {
        "fuelcomposition": {
            "H2": 1.0
        },
        "oxidizercomposition": {
            "N2": 0.79,
            "O2": 0.21
        }
    },
    "grid": {
        "interpolation": "LINEAR",
        "leftboundary": -1.4671371097593031,
        "numberofpoints": 200,
        "rightboundary": 2.200705664639091,
        "weight": {
            "HeatRel": 2.0,
            "Massflow": 0.4,
            "Temp": 2.0
        }
    },
    "heat": {},
    "lewis": {
        "transportfile": "lewis.dat"
    },
    "mixtureaveraged": {},
    "model": {
        "flametype": "COUNTERFLOW",
        "radiation": "NONE",
        "transport": "LEWIS"
    },
    "postprocessing": {
        "outputfiles": {
            "MASS": [
                "yiend_60.985.dat",
                "ON"
            ],
            "SOURCE": [
                "siend_60.985.dat",
                "ON"
            ]
        }
    },
    "preprocessing": {
        "reactionmechanismfile": "gri30.chm",
        "startsolutionfile": "yistart.dat"
    },
    "radiation": {
        "factor": 0.0
    },
    "solid": {},
    "solver": {
        "convergence": 1e-11,
        "maximumiterations": 1500
    },
    "strainandcurvature": {
        "strain": 60.985
    },
    "timestepper": {
        "minimumtimestep": 1e-13
    }
}