 
========================================================================
 
 
OOOOOOOOOOOOOOOOOOOOOOOOOOOOOOOOOOOOOOOOOOOOOO
O                                            O
O     @@@@  @  @  @@@@  @   @    @  @@@b     O
O     @     @  @  @     @@ @@   @@  @  @     O
O     @     @@@@  @@@@  @ @ @    @  @  @     O
O     @     @  @  @     @   @    @  @  @     O
O     @@@@  @  @  @@@@  @   @    @  @@@P     O
O                                            O
O     A ONE DIMENSIONAL FLAME CODE           O
O                                            O
O  Version: 3.2.2                            O
O  Release:                                  O
O                                            O
OOOOOOOOOOOOOOOOOOOOOOOOOOOOOOOOOOOOOOOOOOOOOO
 
 
 
* Developed at the Eindhoven University of Technology
 
* http://www.combustion.tue.nl
 
========================================================================
 
Reading CHEM1D input files
    => Start reading chemistry 
    => Finished reading chemistry
    => Thermodynamical Data   [OK]
    => Defaultsfile           [MSG]
                 [WARNING] value outside range at
                          HEAT_BOUNDARY_LOCATI with value  2.00000
                           using        1.21523
                 [WARNING] value outside range at
                          EFIELD_BOUNDARY_LOCA with value  2.00000
                           using        1.21523
    => Settingsfile           [OK]
    => Commandline options    [OK]
    => Reading Lewis numbers  [OK]
    => Start reading .chm file
        [MSG] Transport parameters    [OK]
        [MSG] Conductivity parameters [OK]
        [MSG] Viscosity parameters    [OK]
        [MSG] Difusivity parameters   [OK]
        [MSG] Thermal parameters      [OK]
    => Reading .chm file      [OK]
    => CHEM1D datafile        [OK]
 
------------------------------------------------------------------------
 
Simulation settings:
    => Counterflow flame
    => Timedependent  solution
    => Detailed chemistry model
    => Constant Lewis diffusion model
    => No radiation model
    => No soot model
    => No model for heat exchanger
    => No electricity model
 
------------------------------------------------------------------------
 
Variables:
       Name              BC_Left      BC_Right     Unit
  1) * H2                1.00000E+00  0.00000E+00  Mass frac.
  2) * H                 0.00000E+00  0.00000E+00  Mass frac.
  3) * O                 0.00000E+00  0.00000E+00  Mass frac.
  4) * O2                0.00000E+00  2.32918E-01  Mass frac.
  5) * OH                0.00000E+00  0.00000E+00  Mass frac.
  6) * H2O               0.00000E+00  0.00000E+00  Mass frac.
  7) * HO2               0.00000E+00  0.00000E+00  Mass frac.
  8) * H2O2              0.00000E+00  0.00000E+00  Mass frac.
  9) * C                 0.00000E+00  0.00000E+00  Mass frac.
 10) * CH                0.00000E+00  0.00000E+00  Mass frac.
 11) * CH2               0.00000E+00  0.00000E+00  Mass frac.
 12) * CH2(S)            0.00000E+00  0.00000E+00  Mass frac.
 13) * CH3               0.00000E+00  0.00000E+00  Mass frac.
 14) * CH4               0.00000E+00  0.00000E+00  Mass frac.
 15) * CO                0.00000E+00  0.00000E+00  Mass frac.
 16) * CO2               0.00000E+00  0.00000E+00  Mass frac.
 17) * HCO               0.00000E+00  0.00000E+00  Mass frac.
 18) * CH2O              0.00000E+00  0.00000E+00  Mass frac.
 19) * CH2OH             0.00000E+00  0.00000E+00  Mass frac.
 20) * CH3O              0.00000E+00  0.00000E+00  Mass frac.
 21) * CH3OH             0.00000E+00  0.00000E+00  Mass frac.
 22) * C2H               0.00000E+00  0.00000E+00  Mass frac.
 23) * C2H2              0.00000E+00  0.00000E+00  Mass frac.
 24) * C2H3              0.00000E+00  0.00000E+00  Mass frac.
 25) * C2H4              0.00000E+00  0.00000E+00  Mass frac.
 26) * C2H5              0.00000E+00  0.00000E+00  Mass frac.
 27) * C2H6              0.00000E+00  0.00000E+00  Mass frac.
 28) * HCCO              0.00000E+00  0.00000E+00  Mass frac.
 29) * CH2CO             0.00000E+00  0.00000E+00  Mass frac.
 30) * HCCOH             0.00000E+00  0.00000E+00  Mass frac.
 31) * N                 0.00000E+00  0.00000E+00  Mass frac.
 32) * NH                0.00000E+00  0.00000E+00  Mass frac.
 33) * NH2               0.00000E+00  0.00000E+00  Mass frac.
 34) * NH3               0.00000E+00  0.00000E+00  Mass frac.
 35) * NNH               0.00000E+00  0.00000E+00  Mass frac.
 36) * NO                0.00000E+00  0.00000E+00  Mass frac.
 37) * NO2               0.00000E+00  0.00000E+00  Mass frac.
 38) * N2O               0.00000E+00  0.00000E+00  Mass frac.
 39) * HNO               0.00000E+00  0.00000E+00  Mass frac.
 40) * CN                0.00000E+00  0.00000E+00  Mass frac.
 41) * HCN               0.00000E+00  0.00000E+00  Mass frac.
 42) * H2CN              0.00000E+00  0.00000E+00  Mass frac.
 43) * HCNN              0.00000E+00  0.00000E+00  Mass frac.
 44) * HCNO              0.00000E+00  0.00000E+00  Mass frac.
 45) * HOCN              0.00000E+00  0.00000E+00  Mass frac.
 46) * HNCO              0.00000E+00  0.00000E+00  Mass frac.
 47) * NCO               0.00000E+00  0.00000E+00  Mass frac.
 48) * N2                0.00000E+00  7.67082E-01  Mass frac.
 49) * AR                0.00000E+00  0.00000E+00  Mass frac.
 50) * C3H7              0.00000E+00  0.00000E+00  Mass frac.
 51) * C3H8              0.00000E+00  0.00000E+00  Mass frac.
 52) * CH2CHO            0.00000E+00  0.00000E+00  Mass frac.
 53) * CH3CHO            0.00000E+00  0.00000E+00  Mass frac.
 54) * Temp              3.20000E+02  4.53000E+02  K
 55) * Massflow          7.67732E-05  7.76130E-04  gr/(cm2 s)
 56) * Enthalpy          3.13415E+02  1.57863E+02  J/gr
 57) * MixFrac           1.00000E+00  0.00000E+00  -
 58) * Stretch           6.35905E+02  2.00000E+02  1/s
 59)   Press             1.01325E+05  1.01325E+05  Pa
 60)   Density           7.67732E-05  7.76130E-04  gr/cm3
 61)   MeanMass          2.01594E+00  2.88503E+01  gr/mol
 62)   Surface           0.00000E+00  0.00000E+00  cm2
 63)   Porosity          0.00000E+00  0.00000E+00  -
 64)   Tsolid            0.00000E+00  0.00000E+00  K
 65)   HeatRel           0.00000E+00  0.00000E+00  J/(cm3 s)
 66)   Dissipation       0.00000E+00  0.00000E+00  -
 
------------------------------------------------------------------------
 
       0 --- ---------- ---------- Start solver
       1 --- ---------- ---------- Regridding
       1 --- ---------- ---------- Jacobian 00001
       1 --- ---------- ---------- Timestep 1.000E-09
       1   2 9.1994E-07 1.0000E-09 Time OK
       2  10 5.9570E-06 2.0000E-09 Time OK
       3  10 7.2898E-06 3.0000E-09 Time OK
       4  10 7.2919E-06 4.0000E-09 Time OK
       5  10 7.0080E-06 5.0000E-09 Time OK
       6  10 6.7123E-06 6.0000E-09 Time OK
       7  10 6.4511E-06 7.0000E-09 Time OK
       8  10 6.2199E-06 8.0000E-09 Time OK
       9  10 6.0098E-06 9.0000E-09 Time OK
      10  10 5.8147E-06 1.0000E-08 Time OK
      11  10 5.6316E-06 1.1000E-08 Time OK
      12  10 5.4587E-06 1.2000E-08 Time OK
      13  10 5.2949E-06 1.3000E-08 Time OK
      14  10 5.1394E-06 1.4000E-08 Time OK
      15  10 4.9917E-06 1.5000E-08 Time OK
      16   9 9.9332E-06 1.6000E-08 Time OK
      17   9 9.6461E-06 1.7000E-08 Time OK
      18   9 9.3828E-06 1.8000E-08 Time OK
      19   9 9.1352E-06 1.9000E-08 Time OK
      20   9 8.9001E-06 2.0000E-08 Time OK
      21   9 8.6760E-06 2.1000E-08 Time OK
      22   9 8.4621E-06 2.2000E-08 Time OK
      23 --- ---------- ---------- Jacobian 00002
      23 --- ---------- ---------- Timestep 1.000E-09
      23   1 9.2219E-09 2.3000E-08 Time OK
      24   1 1.8054E-08 2.4000E-08 Time OK
      25   1 2.6544E-08 2.5000E-08 Time OK
      26   1 3.4701E-08 2.6000E-08 Time OK
      27   1 4.2542E-08 2.7000E-08 Time OK
      28   1 5.0080E-08 2.8000E-08 Time OK
      29   1 5.7327E-08 2.9000E-08 Time OK
      30   1 6.4295E-08 3.0000E-08 Time OK
      31   1 7.0995E-08 3.1000E-08 Time OK
      32   1 7.7438E-08 3.2000E-08 Time OK
      33   1 8.3634E-08 3.3000E-08 Time OK
      34   1 8.9591E-08 3.4000E-08 Time OK
      35   1 9.5319E-08 3.5000E-08 Time OK
      36   1 1.0083E-07 3.6000E-08 Time OK
      37   1 1.0612E-07 3.7000E-08 Time OK
      38   1 1.1121E-07 3.8000E-08 Time OK
      39   1 1.1610E-07 3.9000E-08 Time OK
      40   1 1.2080E-07 4.0000E-08 Time OK
      41   1 1.2532E-07 4.1000E-08 Time OK
      42   1 1.2966E-07 4.2000E-08 Time OK
      43   1 1.3383E-07 4.3000E-08 Time OK
      44   1 1.3783E-07 4.4000E-08 Time OK
      45 --- ---------- ---------- Regridding
      45 --- ---------- ---------- Jacobian 00003
      45 --- ---------- ---------- Timestep 2.000E-09
      45   1 1.0618E-06 4.6000E-08 Time OK
      46   1 2.2121E-06 4.8000E-08 Time OK
      47   0 7.4429E-06 5.0000E-08 Time OK
      48   1 2.9587E-07 5.2000E-08 Time OK
      49   0 8.6883E-06 5.4000E-08 Time OK
      50   1 7.3658E-07 5.6000E-08 Time OK
      51   0 9.5278E-06 5.8000E-08 Time OK
      52   1 9.3580E-07 6.0000E-08 Time OK
      53   0 8.9075E-06 6.2000E-08 Time OK
      54   1 1.1829E-06 6.4000E-08 Time OK
      55   0 9.4700E-06 6.6000E-08 Time OK
      56   1 1.4212E-06 6.8000E-08 Time OK
      57   0 8.4134E-06 7.0000E-08 Time OK
      58   1 1.6531E-06 7.2000E-08 Time OK
      59   0 9.2553E-06 7.4000E-08 Time OK
      60   1 1.8999E-06 7.6000E-08 Time OK
      61   0 8.0583E-06 7.8000E-08 Time OK
      62   1 2.1313E-06 8.0000E-08 Time OK
      63   0 9.1574E-06 8.2000E-08 Time OK
      64   1 2.3787E-06 8.4000E-08 Time OK
      65   0 7.8124E-06 8.6000E-08 Time OK
      66   1 2.6113E-06 8.8000E-08 Time OK
      67 --- ---------- ---------- Jacobian 00004
      67 --- ---------- ---------- Timestep 4.000E-09
      67   1 4.0449E-08 9.2000E-08 Time OK
      68   1 6.1611E-08 9.6000E-08 Time OK
      69   1 7.9879E-08 1.0000E-07 Time OK
      70   1 9.7330E-08 1.0400E-07 Time OK
      71   1 1.1367E-07 1.0800E-07 Time OK
      72   1 1.2846E-07 1.1200E-07 Time OK
      73   1 1.4162E-07 1.1600E-07 Time OK
      74   1 1.5319E-07 1.2000E-07 Time OK
      75   1 1.6327E-07 1.2400E-07 Time OK
      76   1 1.7200E-07 1.2800E-07 Time OK
      77   1 1.7950E-07 1.3200E-07 Time OK
      78   1 1.8589E-07 1.3600E-07 Time OK
      79   1 1.9129E-07 1.4000E-07 Time OK
      80   1 1.9579E-07 1.4400E-07 Time OK
      81   1 1.9950E-07 1.4800E-07 Time OK
      82   1 2.0248E-07 1.5200E-07 Time OK
      83   1 2.0483E-07 1.5600E-07 Time OK
      84   1 2.0660E-07 1.6000E-07 Time OK
      85   1 2.0786E-07 1.6400E-07 Time OK
      86   1 2.0866E-07 1.6800E-07 Time OK
      87   1 2.0906E-07 1.7200E-07 Time OK
      88   1 2.0910E-07 1.7600E-07 Time OK
      89 --- ---------- ---------- Regridding
      89 --- ---------- ---------- Jacobian 00005
      89 --- ---------- ---------- Timestep 8.000E-09
      89   1 9.6963E-08 1.8400E-07 Time OK
      90   1 1.8545E-07 1.9200E-07 Time OK
      91   1 1.1682E-07 2.0000E-07 Time OK
      92   1 1.4274E-07 2.0800E-07 Time OK
      93   1 1.6349E-07 2.1600E-07 Time OK
      94   1 1.8010E-07 2.2400E-07 Time OK
      95   1 1.9325E-07 2.3200E-07 Time OK
      96   1 2.0355E-07 2.4000E-07 Time OK
      97   1 2.1149E-07 2.4800E-07 Time OK
      98   1 2.1747E-07 2.5600E-07 Time OK
      99   1 2.2182E-07 2.6400E-07 Time OK
     100   1 2.2484E-07 2.7200E-07 Time OK
     101   1 2.2675E-07 2.8000E-07 Time OK
     102   1 2.2775E-07 2.8800E-07 Time OK
     103   1 2.2801E-07 2.9600E-07 Time OK
     104   1 2.2765E-07 3.0400E-07 Time OK
     105   1 2.2680E-07 3.1200E-07 Time OK
     106   1 2.2555E-07 3.2000E-07 Time OK
     107   1 2.2398E-07 3.2800E-07 Time OK
     108   1 2.2216E-07 3.3600E-07 Time OK
     109   1 2.2013E-07 3.4400E-07 Time OK
     110   1 2.1796E-07 3.5200E-07 Time OK
     111 --- ---------- ---------- Jacobian 00006
     111 --- ---------- ---------- Timestep 1.600E-08
     111   1 6.9116E-08 3.6800E-07 Time OK
     112   1 1.2423E-07 3.8400E-07 Time OK
     113   1 1.6842E-07 4.0000E-07 Time OK
     114   1 2.0377E-07 4.1600E-07 Time OK
     115   1 2.3218E-07 4.3200E-07 Time OK
     116   1 2.5505E-07 4.4800E-07 Time OK
     117   1 2.7350E-07 4.6400E-07 Time OK
     118   1 2.8838E-07 4.8000E-07 Time OK
     119   1 3.0035E-07 4.9600E-07 Time OK
     120   1 3.0995E-07 5.1200E-07 Time OK
     121   1 3.1759E-07 5.2800E-07 Time OK
     122   1 3.2362E-07 5.4400E-07 Time OK
     123   1 3.2831E-07 5.6000E-07 Time OK
     124   1 3.3188E-07 5.7600E-07 Time OK
     125   1 3.3452E-07 5.9200E-07 Time OK
     126   1 3.3638E-07 6.0800E-07 Time OK
     127   1 3.3758E-07 6.2400E-07 Time OK
     128   1 3.3824E-07 6.4000E-07 Time OK
     129   1 3.3843E-07 6.5600E-07 Time OK
     130   1 3.3822E-07 6.7200E-07 Time OK
     131   1 3.3769E-07 6.8800E-07 Time OK
     132   1 3.3687E-07 7.0400E-07 Time OK
     133 --- ---------- ---------- Regridding
     133 --- ---------- ---------- Jacobian 00007
     133 --- ---------- ---------- Timestep 3.200E-08
     133   1 3.3505E-07 7.3600E-07 Time OK
     134   1 7.0548E-07 7.6800E-07 Time OK
     135   1 2.7090E-07 8.0000E-07 Time OK
     136   1 3.3113E-07 8.3200E-07 Time OK
     137   1 3.7973E-07 8.6400E-07 Time OK
     138   1 4.1968E-07 8.9600E-07 Time OK
     139   1 4.5238E-07 9.2800E-07 Time OK
     140   1 4.7909E-07 9.6000E-07 Time OK
     141   1 5.0079E-07 9.9200E-07 Time OK
     142   1 5.1828E-07 1.0240E-06 Time OK
     143   1 5.3223E-07 1.0560E-06 Time OK
     144   1 5.4318E-07 1.0880E-06 Time OK
     145   1 5.5161E-07 1.1200E-06 Time OK
     146   1 5.5791E-07 1.1520E-06 Time OK
     147   1 5.6240E-07 1.1840E-06 Time OK
     148   1 5.6538E-07 1.2160E-06 Time OK
     149   1 5.6709E-07 1.2480E-06 Time OK
     150   1 5.6775E-07 1.2800E-06 Time OK
     151   1 5.6752E-07 1.3120E-06 Time OK
     152   1 5.6658E-07 1.3440E-06 Time OK
     153   1 5.6505E-07 1.3760E-06 Time OK
     154   1 5.6305E-07 1.4080E-06 Time OK
     155 --- ---------- ---------- Jacobian 00008
     155 --- ---------- ---------- Timestep 6.400E-08
     155   1 1.4346E-07 1.4720E-06 Time OK
     156   1 2.6196E-07 1.5360E-06 Time OK
     157   1 3.6205E-07 1.6000E-06 Time OK
     158   1 4.4722E-07 1.6640E-06 Time OK
     159   1 5.2051E-07 1.7280E-06 Time OK
     160   1 5.8432E-07 1.7920E-06 Time OK
     161   1 6.4055E-07 1.8560E-06 Time OK
     162   1 6.9068E-07 1.9200E-06 Time OK
     163   1 7.3589E-07 1.9840E-06 Time OK
     164   1 7.7711E-07 2.0480E-06 Time OK
     165   1 8.1508E-07 2.1120E-06 Time OK
     166   1 8.5039E-07 2.1760E-06 Time OK
     167   1 8.8350E-07 2.2400E-06 Time OK
     168   1 9.1478E-07 2.3040E-06 Time OK
     169   1 9.4454E-07 2.3680E-06 Time OK
     170   1 9.7301E-07 2.4320E-06 Time OK
     171   1 1.0004E-06 2.4960E-06 Time OK
     172   1 1.0268E-06 2.5600E-06 Time OK
     173   1 1.0524E-06 2.6240E-06 Time OK
     174   1 1.0773E-06 2.6880E-06 Time OK
     175   1 1.1016E-06 2.7520E-06 Time OK
     176   1 1.1253E-06 2.8160E-06 Time OK
     177 --- ---------- ---------- Regridding
     177 --- ---------- ---------- Jacobian 00009
     177 --- ---------- ---------- Timestep 1.280E-07
     177   1 2.8913E-07 2.9440E-06 Time OK
     178   1 5.8244E-07 3.0720E-06 Time OK
     179   1 6.9211E-07 3.2000E-06 Time OK
     180   1 8.8685E-07 3.3280E-06 Time OK
     181   1 1.0606E-06 3.4560E-06 Time OK
     182   1 1.2333E-06 3.5840E-06 Time OK
     183   1 1.4080E-06 3.7120E-06 Time OK
     184   1 1.5824E-06 3.8400E-06 Time OK
     185   1 1.7539E-06 3.9680E-06 Time OK
     186   1 1.9204E-06 4.0960E-06 Time OK
     187   1 2.0806E-06 4.2240E-06 Time OK
     188   1 2.2334E-06 4.3520E-06 Time OK
     189   1 2.3783E-06 4.4800E-06 Time OK
     190   1 2.5147E-06 4.6080E-06 Time OK
     191   1 2.6422E-06 4.7360E-06 Time OK
     192   1 2.7607E-06 4.8640E-06 Time OK
     193   1 2.8699E-06 4.9920E-06 Time OK
     194   1 2.9698E-06 5.1200E-06 Time OK
     195   1 3.0606E-06 5.2480E-06 Time OK
     196   1 3.1422E-06 5.3760E-06 Time OK
     197   1 3.2149E-06 5.5040E-06 Time OK
     198   1 3.2789E-06 5.6320E-06 Time OK
     199 --- ---------- ---------- Jacobian 00010
     199 --- ---------- ---------- Timestep 2.560E-07
     199   1 7.8127E-07 5.8880E-06 Time OK
     200   1 1.5024E-06 6.1440E-06 Time OK
     201   1 2.1275E-06 6.4000E-06 Time OK
     202   1 2.6704E-06 6.6560E-06 Time OK
     203   1 3.1360E-06 6.9120E-06 Time OK
     204   1 3.5308E-06 7.1680E-06 Time OK
     205   1 3.8605E-06 7.4240E-06 Time OK
     206   1 4.1307E-06 7.6800E-06 Time OK
     207   1 4.3471E-06 7.9360E-06 Time OK
     208   1 4.5155E-06 8.1920E-06 Time OK
     209   1 4.6416E-06 8.4480E-06 Time OK
     210   1 4.7307E-06 8.7040E-06 Time OK
     211   1 4.7879E-06 8.9600E-06 Time OK
     212   1 4.8177E-06 9.2160E-06 Time OK
     213   1 4.8243E-06 9.4720E-06 Time OK
     214   1 4.8115E-06 9.7280E-06 Time OK
     215   1 4.7826E-06 9.9840E-06 Time OK
     216   1 4.7405E-06 1.0240E-05 Time OK
     217   1 4.6880E-06 1.0496E-05 Time OK
     218   1 4.6272E-06 1.0752E-05 Time OK
     219   1 4.5601E-06 1.1008E-05 Time OK
     220   1 4.4885E-06 1.1264E-05 Time OK
     221 --- ---------- ---------- Regridding
     221 --- ---------- ---------- Jacobian 00011
     221 --- ---------- ---------- Timestep 5.120E-07
     221   1 7.1862E-07 1.1776E-05 Time OK
     222   1 1.8583E-06 1.2288E-05 Time OK
     223   1 2.3443E-06 1.2800E-05 Time OK
     224   1 2.6293E-06 1.3312E-05 Time OK
     225   1 2.9132E-06 1.3824E-05 Time OK
     226   1 3.1703E-06 1.4336E-05 Time OK
     227   1 3.3811E-06 1.4848E-05 Time OK
     228   1 3.5505E-06 1.5360E-05 Time OK
     229   1 3.6900E-06 1.5872E-05 Time OK
     230   1 3.8085E-06 1.6384E-05 Time OK
     231   1 3.9119E-06 1.6896E-05 Time OK
     232   1 4.0039E-06 1.7408E-05 Time OK
     233   1 4.0871E-06 1.7920E-05 Time OK
     234   1 4.1633E-06 1.8432E-05 Time OK
     235   1 4.2336E-06 1.8944E-05 Time OK
     236   1 4.2989E-06 1.9456E-05 Time OK
     237   1 4.3597E-06 1.9968E-05 Time OK
     238   1 4.4163E-06 2.0480E-05 Time OK
     239   1 4.4690E-06 2.0992E-05 Time OK
     240   1 4.5179E-06 2.1504E-05 Time OK
     241   1 4.5631E-06 2.2016E-05 Time OK
     242   1 4.6048E-06 2.2528E-05 Time OK
     243 --- ---------- ---------- Jacobian 00012
     243 --- ---------- ---------- Timestep 1.024E-06
     243   1 9.3534E-07 2.3552E-05 Time OK
     244   1 1.7504E-06 2.4576E-05 Time OK
     245   1 2.4666E-06 2.5600E-05 Time OK
     246   1 3.0908E-06 2.6624E-05 Time OK
     247   1 3.6334E-06 2.7648E-05 Time OK
     248   1 4.1078E-06 2.8672E-05 Time OK
     249   1 4.5235E-06 2.9696E-05 Time OK
     250   1 4.8874E-06 3.0720E-05 Time OK
     251   1 5.2053E-06 3.1744E-05 Time OK
     252   1 5.4818E-06 3.2768E-05 Time OK
     253   1 5.7213E-06 3.3792E-05 Time OK
     254   1 5.9274E-06 3.4816E-05 Time OK
     255   1 6.1033E-06 3.5840E-05 Time OK
     256   1 6.2521E-06 3.6864E-05 Time OK
     257   0 9.2008E-06 3.7888E-05 Time OK
     258   2 1.3618E-07 3.8912E-05 Time OK
     259   0 8.0512E-06 3.9936E-05 Time OK
     260   2 1.9451E-07 4.0960E-05 Time OK
     261   0 8.5900E-06 4.1984E-05 Time OK
     262   2 1.7862E-07 4.3008E-05 Time OK
     263   0 6.9114E-06 4.4032E-05 Time OK
     264   2 2.6951E-07 4.5056E-05 Time OK
     265 --- ---------- ---------- Regridding
     265 --- ---------- ---------- Jacobian 00013
     265 --- ---------- ---------- Timestep 2.048E-06
     265   1 1.8314E-06 4.7104E-05 Time OK
     266   1 3.8371E-06 4.9152E-05 Time OK
     267   1 4.3952E-06 5.1200E-05 Time OK
     268   1 5.0149E-06 5.3248E-05 Time OK
     269   1 5.6145E-06 5.5296E-05 Time OK
     270   1 6.1272E-06 5.7344E-05 Time OK
     271   1 6.5537E-06 5.9392E-05 Time OK
     272   1 6.8987E-06 6.1440E-05 Time OK
     273   1 7.1664E-06 6.3488E-05 Time OK
     274   1 7.3637E-06 6.5536E-05 Time OK
     275   0 9.9803E-06 6.7584E-05 Time OK
     276   2 3.2081E-07 6.9632E-05 Time OK
     277   0 7.1173E-06 7.1680E-05 Time OK
     278   2 5.3467E-07 7.3728E-05 Time OK
     279   0 9.4822E-06 7.5776E-05 Time OK
     280   2 7.0453E-07 7.7824E-05 Time OK
     281   0 5.7850E-06 7.9872E-05 Time OK
     282   2 1.0796E-06 8.1920E-05 Time OK
     283   0 8.8153E-06 8.3968E-05 Time OK
     284   2 2.0748E-06 8.6016E-05 Time OK
     285   0 5.6262E-06 8.8064E-05 Time OK
     286   2 7.3948E-06 9.0112E-05 Time OK
     287 --- ---------- ---------- Jacobian 00014
     287 --- ---------- ---------- Timestep 4.096E-06
     287   1 1.7799E-06 9.4208E-05 Time OK
     288   1 2.4437E-06 9.8304E-05 Time OK
     289   1 3.0123E-06 1.0240E-04 Time OK
     290   1 3.4714E-06 1.0650E-04 Time OK
     291   1 3.8441E-06 1.1059E-04 Time OK
     292   1 4.1303E-06 1.1469E-04 Time OK
     293   1 4.3594E-06 1.1878E-04 Time OK
     294   1 4.5299E-06 1.2288E-04 Time OK
     295   1 4.7401E-06 1.2698E-04 Time OK
     296   1 5.1501E-06 1.3107E-04 Time OK
     297   1 7.5847E-06 1.3517E-04 Time OK
     298   3 3.6730E-06 1.3926E-04 Time OK
     299   2 5.9320E-06 1.4336E-04 Time OK
     300   3 9.1683E-06 1.4746E-04 Time OK
     301   5 9.0711E-06 1.5155E-04 Time OK
     302  10 7.4209E-05 1.5565E-04 Time Fail
     303 --- ---------- ---------- Regridding
     303 --- ---------- ---------- Jacobian 00015
     303 --- ---------- ---------- Timestep 2.048E-06
     303   1 5.5772E-07 1.5360E-04 Time OK
     304   1 5.6851E-07 1.5565E-04 Time OK
     305   0 5.3781E-06 1.5770E-04 Time OK
     306   1 4.1582E-07 1.5974E-04 Time OK
     307   0 1.8445E-06 1.6179E-04 Time OK
     308   0 5.0655E-06 1.6384E-04 Time OK
     309   1 7.7768E-07 1.6589E-04 Time OK
     310   0 3.2142E-06 1.6794E-04 Time OK
     311   0 7.7691E-06 1.6998E-04 Time OK
     312   1 2.0677E-06 1.7203E-04 Time OK
     313   0 8.2597E-06 1.7408E-04 Time OK
     314   1 5.0205E-06 1.7613E-04 Time OK
     315   1 6.6241E-06 1.7818E-04 Time OK
     316   1 7.3336E-06 1.8022E-04 Time OK
     317   1 9.4724E-06 1.8227E-04 Time OK
     318   2 6.8577E-06 1.8432E-04 Time OK
     319   0 7.7811E-06 1.8637E-04 Time OK
     320   1 4.8531E-06 1.8842E-04 Time OK
     321   2 8.0732E-06 1.9046E-04 Time OK
     322   1 9.9818E-06 1.9251E-04 Time OK
     323   6 8.8287E-06 1.9456E-04 Time OK
     324   1 9.4535E-06 1.9661E-04 Time OK
     325 --- ---------- ---------- Jacobian 00016
     325 --- ---------- ---------- Timestep 4.096E-06
     325   1 1.3930E-06 2.0070E-04 Time OK
     326   1 1.2326E-06 2.0480E-04 Time OK
     327   1 6.4585E-07 2.0890E-04 Time OK
     328   1 7.6461E-07 2.1299E-04 Time OK
     329   1 7.7706E-07 2.1709E-04 Time OK
     330   1 9.6159E-07 2.2118E-04 Time OK
     331   1 1.0624E-06 2.2528E-04 Time OK
     332   1 1.3791E-06 2.2938E-04 Time OK
     333   1 1.7298E-06 2.3347E-04 Time OK
     334   1 2.8012E-06 2.3757E-04 Time OK
     335   1 4.9160E-06 2.4166E-04 Time OK
     336   2 9.0425E-06 2.4576E-04 Time OK
     337   4 4.7555E-07 2.4986E-04 Time OK
     338   1 4.7425E-06 2.5395E-04 Time OK
     339   1 9.4005E-06 2.5805E-04 Time OK
     340   2 1.6466E-06 2.6214E-04 Time OK
     341   0 2.4147E-06 2.6624E-04 Time OK
     342   0 8.9480E-06 2.7034E-04 Time OK
     343   1 6.1658E-06 2.7443E-04 Time OK
     344   2 5.9684E-06 2.7853E-04 Time OK
     345   1 6.1057E-06 2.8262E-04 Time OK
     346  10 6.2546E-05 2.8672E-04 Time Fail
     347 --- ---------- ---------- Regridding
     347 --- ---------- ---------- Jacobian 00017
     347 --- ---------- ---------- Timestep 4.096E-06
     347   1 7.5550E-07 2.8672E-04 Time OK
     348   1 5.8633E-07 2.9082E-04 Time OK
     349   0 8.5348E-06 2.9491E-04 Time OK
     350   1 8.4965E-07 2.9901E-04 Time OK
     351   0 2.8959E-06 3.0310E-04 Time OK
     352   0 7.9545E-06 3.0720E-04 Time OK
     353   1 2.3535E-06 3.1130E-04 Time OK
     354   0 7.9618E-06 3.1539E-04 Time OK
     355   1 6.2660E-06 3.1949E-04 Time OK
     356   1 9.8883E-06 3.2358E-04 Time OK
     357   2 8.0842E-06 3.2768E-04 Time OK
     358   1 5.0809E-06 3.3178E-04 Time OK
     359   2 9.3765E-06 3.3587E-04 Time OK
     360   2 9.1568E-06 3.3997E-04 Time OK
     361   1 8.3034E-06 3.4406E-04 Time OK
     362   6 5.1958E-07 3.4816E-04 Time OK
     363   0 9.8829E-06 3.5226E-04 Time OK
     364   1 8.9890E-06 3.5635E-04 Time OK
     365   1 8.3142E-06 3.6045E-04 Time OK
     366   1 6.4534E-06 3.6454E-04 Time OK
     367   1 4.9115E-06 3.6864E-04 Time OK
     368   0 8.2745E-06 3.7274E-04 Time OK
     369 --- ---------- ---------- Jacobian 00018
     369 --- ---------- ---------- Timestep 8.192E-06
     369   1 6.1657E-07 3.8093E-04 Time OK
     370   1 8.6371E-07 3.8912E-04 Time OK
     371   1 1.0096E-06 3.9731E-04 Time OK
     372   1 1.2609E-06 4.0550E-04 Time OK
     373   1 1.4723E-06 4.1370E-04 Time OK
     374   1 1.7289E-06 4.2189E-04 Time OK
     375   1 1.9188E-06 4.3008E-04 Time OK
     376   1 2.2843E-06 4.3827E-04 Time OK
     377   1 2.7466E-06 4.4646E-04 Time OK
     378   1 4.9033E-06 4.5466E-04 Time OK
     379   3 1.0350E-06 4.6285E-04 Time OK
     380   1 5.6577E-06 4.7104E-04 Time OK
     381   2 2.3097E-06 4.7923E-04 Time OK
     382   0 4.3614E-06 4.8742E-04 Time OK
     383   1 5.8927E-06 4.9562E-04 Time OK
     384   0 7.4326E-06 5.0381E-04 Time OK
     385  10 5.1901E-05 5.1200E-04 Time Fail
     386 --- ---------- ---------- Regridding
     386 --- ---------- ---------- Jacobian 00019
     386 --- ---------- ---------- Timestep 4.096E-06
     386   1 2.4802E-07 5.0790E-04 Time OK
     387   1 3.3494E-07 5.1200E-04 Time OK
     388   0 2.8890E-06 5.1610E-04 Time OK
     389   0 7.8330E-06 5.2019E-04 Time OK
     390   1 4.4460E-07 5.2429E-04 Time OK
     391   0 5.7866E-06 5.2838E-04 Time OK
     392   0 9.2903E-06 5.3248E-04 Time OK
     393   1 9.1830E-07 5.3658E-04 Time OK
     394   1 6.3687E-07 5.4067E-04 Time OK
     395   0 2.8095E-06 5.4477E-04 Time OK
     396   0 7.2876E-06 5.4886E-04 Time OK
     397   1 1.1322E-06 5.5296E-04 Time OK
     398   0 6.9748E-06 5.5706E-04 Time OK
     399   1 2.7994E-06 5.6115E-04 Time OK
     400   1 3.7073E-06 5.6525E-04 Time OK
     401   0 9.8899E-06 5.6934E-04 Time OK
     402   1 7.6379E-06 5.7344E-04 Time OK
     403   2 6.6159E-06 5.7754E-04 Time OK
     404   0 7.2241E-06 5.8163E-04 Time OK
     405   0 9.3302E-06 5.8573E-04 Time OK
     406   1 5.5713E-06 5.8982E-04 Time OK
     407   2 9.6327E-06 5.9392E-04 Time OK
     408 --- ---------- ---------- Jacobian 00020
     408 --- ---------- ---------- Timestep 8.192E-06
     408   1 1.3113E-06 6.0211E-04 Time OK
     409   1 1.1481E-06 6.1030E-04 Time OK
     410   0 5.9741E-06 6.1850E-04 Time OK
     411   1 1.2150E-06 6.2669E-04 Time OK
     412   0 5.4147E-06 6.3488E-04 Time OK
     413   1 2.9056E-06 6.4307E-04 Time OK
     414   1 3.7486E-06 6.5126E-04 Time OK
     415   1 3.8783E-06 6.5946E-04 Time OK
     416   1 5.1333E-06 6.6765E-04 Time OK
     417   1 7.0049E-06 6.7584E-04 Time OK
     418   2 6.1917E-06 6.8403E-04 Time OK
     419   0 7.5728E-06 6.9222E-04 Time OK
     420   1 5.3016E-06 7.0042E-04 Time OK
     421   3 8.9915E-06 7.0861E-04 Time OK
     422  10 9.3451E-06 7.1680E-04 Time OK
     423   3 1.3300E-07 7.2499E-04 Time OK
     424   0 9.9793E-06 7.3318E-04 Time OK
     425   1 3.8272E-06 7.4138E-04 Time OK
     426   1 3.1441E-06 7.4957E-04 Time OK
     427   0 5.6647E-06 7.5776E-04 Time OK
     428   1 3.8722E-06 7.6595E-04 Time OK
     429   0 7.0074E-06 7.7414E-04 Time OK
     430 --- ---------- ---------- Regridding
     430 --- ---------- ---------- Jacobian 00021
     430 --- ---------- ---------- Timestep 1.638E-05
     430   1 1.3762E-06 7.9053E-04 Time OK
     431   1 1.2770E-06 8.0691E-04 Time OK
     432   0 8.4905E-06 8.2330E-04 Time OK
     433   1 2.7829E-06 8.3968E-04 Time OK
     434   0 8.3532E-06 8.5606E-04 Time OK
     435   1 5.9415E-06 8.7245E-04 Time OK
     436   1 8.7118E-06 8.8883E-04 Time OK
     437   2 6.7689E-06 9.0522E-04 Time OK
     438   0 9.1063E-06 9.2160E-04 Time OK
     439   1 5.2888E-06 9.3798E-04 Time OK
     440   2 9.9735E-06 9.5437E-04 Time OK
     441   8 1.8847E-07 9.7075E-04 Time OK
     442   1 9.2374E-07 9.8714E-04 Time OK
     443   0 4.7467E-06 1.0035E-03 Time OK
     444   1 3.9420E-06 1.0199E-03 Time OK
     445   0 6.0101E-06 1.0363E-03 Time OK
     446   1 3.5571E-06 1.0527E-03 Time OK
     447   0 3.9043E-06 1.0691E-03 Time OK
     448   0 5.2437E-06 1.0854E-03 Time OK
     449   0 8.5995E-06 1.1018E-03 Time OK
     450   1 5.7986E-06 1.1182E-03 Time OK
     451   0 7.4991E-06 1.1346E-03 Time OK
     452 --- ---------- ---------- Jacobian 00022
     452 --- ---------- ---------- Timestep 3.277E-05
     452   1 1.6517E-06 1.1674E-03 Time OK
     453   0 7.4294E-06 1.2001E-03 Time OK
     454   1 3.4861E-06 1.2329E-03 Time OK
     455   1 2.6395E-06 1.2657E-03 Time OK
     456   0 5.1500E-06 1.2984E-03 Time OK
     457   1 4.1943E-06 1.3312E-03 Time OK
     458   1 4.4501E-06 1.3640E-03 Time OK
     459   1 4.7756E-06 1.3967E-03 Time OK
     460   1 5.7113E-06 1.4295E-03 Time OK
     461   1 7.4319E-06 1.4623E-03 Time OK
     462   1 9.9116E-06 1.4950E-03 Time OK
     463   2 7.4010E-06 1.5278E-03 Time OK
     464   0 5.9719E-06 1.5606E-03 Time OK
     465   0 5.3750E-06 1.5933E-03 Time OK
     466   0 6.2396E-06 1.6261E-03 Time OK
     467   0 8.3169E-06 1.6589E-03 Time OK
     468   1 5.8498E-06 1.6916E-03 Time OK
     469   1 8.0267E-06 1.7244E-03 Time OK
     470   2 7.3421E-06 1.7572E-03 Time OK
     471   0 8.7176E-06 1.7900E-03 Time OK
     472   1 7.2810E-06 1.8227E-03 Time OK
     473   3 7.5794E-06 1.8555E-03 Time OK
     474 --- ---------- ---------- Regridding
     474 --- ---------- ---------- Jacobian 00023
     474 --- ---------- ---------- Timestep 6.554E-05
     474   1 4.3890E-07 1.9210E-03 Time OK
     475   1 4.1759E-07 1.9866E-03 Time OK
     476   0 2.9266E-06 2.0521E-03 Time OK
     477   0 9.1174E-06 2.1176E-03 Time OK
     478   1 1.4510E-06 2.1832E-03 Time OK
     479   0 4.6776E-06 2.2487E-03 Time OK
     480   0 6.8864E-06 2.3142E-03 Time OK
     481   0 8.3330E-06 2.3798E-03 Time OK
     482   1 2.9068E-06 2.4453E-03 Time OK
     483   0 9.0588E-06 2.5108E-03 Time OK
     484   1 2.0140E-06 2.5764E-03 Time OK
     485   0 9.5472E-06 2.6419E-03 Time OK
     486   1 2.0127E-06 2.7075E-03 Time OK
     487   0 9.7483E-06 2.7730E-03 Time OK
     488   1 4.8850E-06 2.8385E-03 Time OK
     489   1 2.3347E-06 2.9041E-03 Time OK
     490   0 5.0829E-06 2.9696E-03 Time OK
     491   1 4.4800E-06 3.0351E-03 Time OK
     492   1 2.8600E-06 3.1007E-03 Time OK
     493   0 2.2233E-06 3.1662E-03 Time OK
     494   0 8.1037E-06 3.2317E-03 Time OK
     495   1 7.0967E-06 3.2973E-03 Time OK
     496 --- ---------- ---------- Jacobian 00024
     496 --- ---------- ---------- Timestep 1.311E-04
     496   0 8.2756E-06 3.4284E-03 Time OK
     497   0 8.7145E-06 3.5594E-03 Time OK
     498   1 6.0917E-06 3.6905E-03 Time OK
     499   1 3.3835E-06 3.8216E-03 Time OK
     500   0 2.7635E-06 3.9526E-03 Time OK
     501   1 4.8150E-06 4.0837E-03 Time OK
     502   1 2.8980E-06 4.2148E-03 Time OK
     503   0 1.2332E-06 4.3459E-03 Time OK
     504   0 5.6448E-06 4.4769E-03 Time OK
     505   1 6.0965E-06 4.6080E-03 Time OK
     506   1 2.7938E-06 4.7391E-03 Time OK
     507   0 1.9936E-06 4.8701E-03 Time OK
     508   0 6.0932E-06 5.0012E-03 Time OK
     509   1 4.5244E-06 5.1323E-03 Time OK
     510   1 1.9279E-06 5.2634E-03 Time OK
     511   0 1.9698E-06 5.3944E-03 Time OK
     512   0 4.8448E-06 5.5255E-03 Time OK
     513   0 8.0758E-06 5.6566E-03 Time OK
     514   1 3.5257E-06 5.7876E-03 Time OK
     515   1 1.2693E-06 5.9187E-03 Time OK
     516   0 1.9841E-06 6.0498E-03 Time OK
     517   0 4.4525E-06 6.1809E-03 Time OK
     518 --- ---------- ---------- Regridding
     518 --- ---------- ---------- Jacobian 00025
     518 --- ---------- ---------- Timestep 2.621E-04
     518   1 1.0814E-07 6.4430E-03 Time OK
     519   1 1.4242E-07 6.7052E-03 Time OK
     520   0 4.4959E-07 6.9673E-03 Time OK
     521   0 7.3403E-07 7.2294E-03 Time OK
     522   0 1.0745E-06 7.4916E-03 Time OK
     523   0 1.4872E-06 7.7537E-03 Time OK
     524   0 1.9750E-06 8.0159E-03 Time OK
     525   0 2.5411E-06 8.2780E-03 Time OK
     526   0 3.1894E-06 8.5402E-03 Time OK
     527   0 3.9232E-06 8.8023E-03 Time OK
     528   0 4.7430E-06 9.0644E-03 Time OK
     529   0 5.6327E-06 9.3266E-03 Time OK
     530   0 6.6125E-06 9.5887E-03 Time OK
     531   0 7.6799E-06 9.8509E-03 Time OK
     532   0 8.8362E-06 1.0113E-02 Time OK
     533   1 2.6899E-06 1.0375E-02 Time OK
     534   1 1.1846E-06 1.0637E-02 Time OK
     535   0 4.0579E-06 1.0899E-02 Time OK
     536   0 7.1328E-06 1.1162E-02 Time OK
     537   1 2.0566E-06 1.1424E-02 Time OK
     538   0 5.1807E-06 1.1686E-02 Time OK
     539   1 6.9449E-07 1.1948E-02 Time OK
     540 --- ---------- ---------- Jacobian 00026
     540 --- ---------- ---------- Timestep 5.243E-04
     540   0 8.9079E-06 1.2472E-02 Time OK
     541   1 1.7775E-06 1.2997E-02 Time OK
     542   1 1.5594E-06 1.3521E-02 Time OK
     543   0 2.1233E-06 1.4045E-02 Time OK
     544   0 2.9650E-06 1.4569E-02 Time OK
     545   0 3.8872E-06 1.5094E-02 Time OK
     546   0 4.8196E-06 1.5618E-02 Time OK
     547   0 5.7424E-06 1.6142E-02 Time OK
     548   0 6.6514E-06 1.6667E-02 Time OK
     549   0 7.5490E-06 1.7191E-02 Time OK
     550   0 8.4401E-06 1.7715E-02 Time OK
     551   0 9.3310E-06 1.8239E-02 Time OK
     552   1 6.1837E-06 1.8764E-02 Time OK
     553   1 3.4500E-06 1.9288E-02 Time OK
     554   0 9.5121E-06 1.9812E-02 Time OK
     555   1 3.4173E-06 2.0337E-02 Time OK
     556   0 5.8783E-06 2.0861E-02 Time OK
     557   1 2.6216E-06 2.1385E-02 Time OK
     558   0 5.1406E-06 2.1910E-02 Time OK
     559   0 9.5630E-06 2.2434E-02 Time OK
     560   1 2.4125E-06 2.2958E-02 Time OK
     561   0 9.7065E-06 2.3482E-02 Time OK
     562 --- ---------- ---------- Regridding
     562 --- ---------- ---------- Jacobian 00027
     562 --- ---------- ---------- Timestep 1.049E-03
     562   1 1.2964E-06 2.4531E-02 Time OK
     563   1 1.2699E-06 2.5580E-02 Time OK
     564   0 1.3369E-06 2.6628E-02 Time OK
     565   0 1.4802E-06 2.7677E-02 Time OK
     566   0 1.6810E-06 2.8725E-02 Time OK
     567   0 1.9210E-06 2.9774E-02 Time OK
     568   0 2.1869E-06 3.0822E-02 Time OK
     569   0 2.4702E-06 3.1871E-02 Time OK
     570   0 2.7654E-06 3.2920E-02 Time OK
     571   0 3.0691E-06 3.3968E-02 Time OK
     572   0 3.3790E-06 3.5017E-02 Time OK
     573   0 3.6936E-06 3.6065E-02 Time OK
     574   0 4.0120E-06 3.7114E-02 Time OK
     575   0 4.3334E-06 3.8162E-02 Time OK
     576   0 4.6575E-06 3.9211E-02 Time OK
     577   0 4.9839E-06 4.0260E-02 Time OK
     578   0 5.3124E-06 4.1308E-02 Time OK
     579   0 5.6431E-06 4.2357E-02 Time OK
     580   0 5.9757E-06 4.3405E-02 Time OK
     581   0 6.3103E-06 4.4454E-02 Time OK
     582   0 6.6470E-06 4.5502E-02 Time OK
     583   0 6.9857E-06 4.6551E-02 Time OK
     584 --- ---------- ---------- Jacobian 00028
     584 --- ---------- ---------- Timestep 2.097E-03
     584   0 6.8019E-06 4.8648E-02 Time OK
     585   0 7.5041E-06 5.0745E-02 Time OK
     586   0 8.3392E-06 5.2842E-02 Time OK
     587   0 9.2124E-06 5.4940E-02 Time OK
     588   1 8.2598E-06 5.7037E-02 Time OK
     589   0 9.1588E-06 5.9134E-02 Time OK
     590   2 9.3290E-06 6.1231E-02 Time OK
     591   1 9.9990E-06 6.3328E-02 Time OK
     592   1 5.9686E-06 6.5425E-02 Time OK
     593   1 5.0648E-06 6.7523E-02 Time OK
     594   0 4.5175E-06 6.9620E-02 Time OK
     595   0 4.4459E-06 7.1717E-02 Time OK
     596   0 5.2332E-06 7.3814E-02 Time OK
     597   0 8.3282E-06 7.5911E-02 Time OK
     598   1 5.4417E-06 7.8008E-02 Time OK
     599   0 6.9600E-06 8.0105E-02 Time OK
     600   1 6.8469E-06 8.2203E-02 Time OK
     601   0 9.5249E-06 8.4300E-02 Time OK
     602   1 7.3515E-06 8.6397E-02 Time OK
     603   1 7.2056E-06 8.8494E-02 Time OK
     604   0 7.4287E-06 9.0591E-02 Time OK
     605   0 7.9703E-06 9.2688E-02 Time OK
     606 --- ---------- ---------- Regridding
     606 --- ---------- ---------- Jacobian 00029
     606 --- ---------- ---------- Timestep 4.194E-03
     606   1 9.0231E-06 9.6883E-02 Time OK
     607   1 9.0672E-06 1.0108E-01 Time OK
     608   0 9.5344E-06 1.0527E-01 Time OK
     609   1 9.4380E-06 1.0947E-01 Time OK
     610   0 9.7398E-06 1.1366E-01 Time OK
     611   1 9.6211E-06 1.1785E-01 Time OK
     612   0 9.8952E-06 1.2205E-01 Time OK
     613   1 9.8039E-06 1.2624E-01 Time OK
     614   1 9.4525E-06 1.3044E-01 Time OK
     615   0 9.4996E-06 1.3463E-01 Time OK
     616   0 9.9333E-06 1.3883E-01 Time OK
     617   2 9.4800E-06 1.4302E-01 Time OK
     618   0 9.3980E-06 1.4721E-01 Time OK
     619   0 9.6722E-06 1.5141E-01 Time OK
     620   1 9.6174E-06 1.5560E-01 Time OK
     621   0 9.8286E-06 1.5980E-01 Time OK
     622   1 9.5451E-06 1.6399E-01 Time OK
     623   0 9.4850E-06 1.6819E-01 Time OK
     624   0 9.6430E-06 1.7238E-01 Time OK
     625   1 9.2869E-06 1.7657E-01 Time OK
     626   0 9.1920E-06 1.8077E-01 Time OK
     627   0 9.3605E-06 1.8496E-01 Time OK
     628 --- ---------- ---------- Jacobian 00030
     628 --- ---------- ---------- Timestep 8.389E-03
     628   1 9.2831E-06 1.9335E-01 Time OK
     629   1 9.6810E-06 2.0174E-01 Time OK
     630   2 9.4770E-06 2.1013E-01 Time OK
     631   0 9.8014E-06 2.1852E-01 Time OK
     632   2 9.4955E-06 2.2691E-01 Time OK
     633   0 9.6741E-06 2.3529E-01 Time OK
     634   1 9.6941E-06 2.4368E-01 Time OK
     635   1 9.6476E-06 2.5207E-01 Time OK
     636   1 9.5333E-06 2.6046E-01 Time OK
     637   1 9.3938E-06 2.6885E-01 Time OK
     638   0 9.6546E-06 2.7724E-01 Time OK
     639   1 9.7761E-06 2.8563E-01 Time OK
     640   1 9.7852E-06 2.9401E-01 Time OK
     641   1 9.6673E-06 3.0240E-01 Time OK
     642   0 9.8333E-06 3.1079E-01 Time OK
     643   1 9.8180E-06 3.1918E-01 Time OK
     644   1 9.6152E-06 3.2757E-01 Time OK
     645   0 9.6572E-06 3.3596E-01 Time OK
     646   0 9.9397E-06 3.4435E-01 Time OK
     647   1 9.9934E-06 3.5274E-01 Time OK
     648   1 9.8302E-06 3.6112E-01 Time OK
     649   0 9.8821E-06 3.6951E-01 Time OK
     650 --- ---------- ---------- Regridding
     650 --- ---------- ---------- Jacobian 00031
     650 --- ---------- ---------- Timestep 1.678E-02
     650   3 9.6842E-06 3.8629E-01 Time OK
     651   1 9.7106E-06 4.0307E-01 Time OK
     652   2 9.7881E-06 4.1984E-01 Time OK
     653   2 9.7999E-06 4.3662E-01 Time OK
     654   2 9.6802E-06 4.5340E-01 Time OK
     655   1 9.7369E-06 4.7018E-01 Time OK
     656   1 9.9234E-06 4.8695E-01 Time OK
     657   2 9.8478E-06 5.0373E-01 Time OK
     658   1 9.8357E-06 5.2051E-01 Time OK
     659   1 9.8783E-06 5.3728E-01 Time OK
     660   1 9.9592E-06 5.5406E-01 Time OK
     661   2 9.7675E-06 5.7084E-01 Time OK
     662   0 9.9001E-06 5.8762E-01 Time OK
     663   2 9.7700E-06 6.0439E-01 Time OK
     664   0 9.9395E-06 6.2117E-01 Time OK
     665   2 9.8278E-06 6.3795E-01 Time OK
     666   0 9.9827E-06 6.5473E-01 Time OK
     667   2 9.8352E-06 6.7150E-01 Time OK
     668   0 9.9303E-06 6.8828E-01 Time OK
     669   1 9.9847E-06 7.0506E-01 Time OK
     670   1 9.9852E-06 7.2183E-01 Time OK
     671   1 9.9275E-06 7.3861E-01 Time OK
     672 --- ---------- ---------- Jacobian 00032
     672 --- ---------- ---------- Timestep 3.355E-02
     672   2 9.7880E-06 7.7217E-01 Time OK
     673   3 9.8245E-06 8.0572E-01 Time OK
     674   2 9.9189E-06 8.3927E-01 Time OK
     675   3 9.7942E-06 8.7283E-01 Time OK
     676   1 9.9187E-06 9.0638E-01 Time OK
     677   3 9.7976E-06 9.3994E-01 Time OK
     678   1 9.8648E-06 9.7349E-01 Time OK
     679 --- ---------- ---------- Regridding
     679 --- ---------- ---------- Jacobian 00033
     679 --- ---------- ---------- Timestep 2.651E-02
     679   2 9.9786E-06 1.0000E+00 Time OK
 
------------------------------------------------------------------------
 
Simulation stopped:
  => Maximum simulation time reached!
 
------------------------------------------------------------------------
 
Postprocessing output:
  => Position reaction layer      :  2.2836E-01 cm
  => Temperature reaction layer   :  2.1328E+03 K
  => Mass burning rate            :  1.1187E-02 gr/(cm2s)
  => Burning velocity (unburnt)   :  1.4571E+02 cm/s
  => Propagation velocity         : -2.4892E-03 cm/s
  => Gas velocity                 : -8.2773E+01 cm/s
  => Maximum temperature          :  2.1595E+03 K
  => Minimum temperature          :  3.2000E+02 K
  => Flame thickness (max grad T) :  1.0741E-01 cm
  => Stoichiometric mixture frac. :  2.8511E-02 -
  => Position stoich mixture      :  2.2774E-01 cm
  => Temperature at stoich mixture:  2.1353E+03 K
  => Scalar dissipation at stoich :  2.4144E+00 1/s
 
========================================================================
 
Copy and modify to steady state: /gpfs/scratch/bsc21/bsc21304/fgnonpremexercise1/exercise/flamelets_nh1.0/auxiliary/initi_200.0/yiend.dat > /gpfs/scratch/bsc21/bsc21304/fgnonpremexercise1/exercise/flamelets_nh1.0/auxiliary/initi_200.0/../../stable/yiend_200.0.dat
Done copying
